The file /home/suz11001/sept30/seqGen/not-scaled/150aa/domain.40/domain_0.2IS/seqs/genes/pre_transfer/gene.pruned.tree you want to open for reading does not exist, exiting ...
The file /home/suz11001/sept30/seqGen/not-scaled/150aa/domain.40/domain_0.2IS/seqs/genes/post_transfer/gene.pruned.tree you want to open for reading does not exist, exiting ...
mkdir: cannot create directory ‘post_transfer’: File exists
mv: cannot stat ‘*.post_transfer’: No such file or directory
mv: cannot stat ‘*.pre_transfer’: No such file or directory

RAxML can't, parse the alignment file as phylip file 
it will now try to parse it as FASTA file



Using BFGS method to optimize GTR rate parameters, to disable this specify "--no-bfgs" 



This is RAxML version 8.2.12 released by Alexandros Stamatakis on May 2018.

With greatly appreciated code contributions by:
Andre Aberer      (HITS)
Simon Berger      (HITS)
Alexey Kozlov     (HITS)
Kassian Kobert    (HITS)
David Dao         (KIT and HITS)
Sarah Lutteropp   (KIT and HITS)
Nick Pattengale   (Sandia)
Wayne Pfeiffer    (SDSC)
Akifumi S. Tanabe (NRIFS)
Charlie Taylor    (UF)


Alignment has 427 distinct alignment patterns

Proportion of gaps and completely undetermined characters in this alignment: 0.00%

RAxML rapid bootstrapping and subsequent ML search

Using 1 distinct models/data partitions with joint branch length optimization



Executing 100 rapid bootstrap inferences and thereafter a thorough ML search 

All free model parameters will be estimated by RAxML
ML estimate of 25 per site rate categories

Likelihood of final tree will be evaluated and optimized under GAMMA

GAMMA Model parameters will be estimated up to an accuracy of 0.1000000000 Log Likelihood units

Partition: 0
Alignment Patterns: 427
Name: No Name Provided
DataType: DNA
Substitution Matrix: GTR




RAxML was called as follows:

raxmlHPC-SSE3 -f a -p 13579 -N 100 -m GTRCAT -x 12345 -s /home/suz11001/sept30/seqGen/not-scaled/150aa/domain.40/domain_0.2IS/seqs/genes/pre_transfer/gene.pruned.tree -n pre_transfer 



Time for BS model parameter optimization 0.261248
Bootstrap[0]: Time 1.088410 seconds, bootstrap likelihood -13226.322570, best rearrangement setting 13
Bootstrap[1]: Time 0.848136 seconds, bootstrap likelihood -13197.989312, best rearrangement setting 13
Bootstrap[2]: Time 0.904061 seconds, bootstrap likelihood -13259.926119, best rearrangement setting 12
Bootstrap[3]: Time 0.906931 seconds, bootstrap likelihood -12655.671550, best rearrangement setting 15
Bootstrap[4]: Time 0.892590 seconds, bootstrap likelihood -13239.874615, best rearrangement setting 10
Bootstrap[5]: Time 0.876749 seconds, bootstrap likelihood -12766.455908, best rearrangement setting 10
Bootstrap[6]: Time 0.879330 seconds, bootstrap likelihood -12379.093960, best rearrangement setting 6
Bootstrap[7]: Time 0.859705 seconds, bootstrap likelihood -13013.099417, best rearrangement setting 14
Bootstrap[8]: Time 0.859128 seconds, bootstrap likelihood -12886.908008, best rearrangement setting 5
Bootstrap[9]: Time 0.732795 seconds, bootstrap likelihood -12656.954811, best rearrangement setting 7
Bootstrap[10]: Time 0.816624 seconds, bootstrap likelihood -13443.382890, best rearrangement setting 7
Bootstrap[11]: Time 0.867968 seconds, bootstrap likelihood -13264.299211, best rearrangement setting 5
Bootstrap[12]: Time 0.855914 seconds, bootstrap likelihood -13328.354101, best rearrangement setting 8
Bootstrap[13]: Time 0.802382 seconds, bootstrap likelihood -13032.401160, best rearrangement setting 7
Bootstrap[14]: Time 0.855164 seconds, bootstrap likelihood -12765.167141, best rearrangement setting 12
Bootstrap[15]: Time 0.873486 seconds, bootstrap likelihood -13509.612664, best rearrangement setting 15
Bootstrap[16]: Time 0.746194 seconds, bootstrap likelihood -12407.018216, best rearrangement setting 12
Bootstrap[17]: Time 0.825494 seconds, bootstrap likelihood -13274.022886, best rearrangement setting 12
Bootstrap[18]: Time 0.886197 seconds, bootstrap likelihood -13378.639573, best rearrangement setting 5
Bootstrap[19]: Time 0.804547 seconds, bootstrap likelihood -13184.700656, best rearrangement setting 8
Bootstrap[20]: Time 0.802232 seconds, bootstrap likelihood -13496.375022, best rearrangement setting 10
Bootstrap[21]: Time 0.916362 seconds, bootstrap likelihood -13252.060158, best rearrangement setting 6
Bootstrap[22]: Time 0.779896 seconds, bootstrap likelihood -13090.334285, best rearrangement setting 5
Bootstrap[23]: Time 0.864238 seconds, bootstrap likelihood -13757.545710, best rearrangement setting 7
Bootstrap[24]: Time 0.769315 seconds, bootstrap likelihood -12617.635459, best rearrangement setting 8
Bootstrap[25]: Time 0.807252 seconds, bootstrap likelihood -12789.744279, best rearrangement setting 6
Bootstrap[26]: Time 0.825125 seconds, bootstrap likelihood -12041.266246, best rearrangement setting 12
Bootstrap[27]: Time 0.847324 seconds, bootstrap likelihood -13355.452469, best rearrangement setting 10
Bootstrap[28]: Time 0.827053 seconds, bootstrap likelihood -12593.550872, best rearrangement setting 11
Bootstrap[29]: Time 0.847451 seconds, bootstrap likelihood -12705.177454, best rearrangement setting 12
Bootstrap[30]: Time 0.952586 seconds, bootstrap likelihood -12920.972960, best rearrangement setting 15
Bootstrap[31]: Time 0.744480 seconds, bootstrap likelihood -12843.437835, best rearrangement setting 15
Bootstrap[32]: Time 0.832639 seconds, bootstrap likelihood -12631.954293, best rearrangement setting 6
Bootstrap[33]: Time 0.844307 seconds, bootstrap likelihood -12893.218408, best rearrangement setting 15
Bootstrap[34]: Time 0.871010 seconds, bootstrap likelihood -13143.122690, best rearrangement setting 11
Bootstrap[35]: Time 0.828828 seconds, bootstrap likelihood -12914.206438, best rearrangement setting 8
Bootstrap[36]: Time 0.710560 seconds, bootstrap likelihood -12810.414114, best rearrangement setting 9
Bootstrap[37]: Time 0.879153 seconds, bootstrap likelihood -13199.092392, best rearrangement setting 11
Bootstrap[38]: Time 0.897538 seconds, bootstrap likelihood -12954.370930, best rearrangement setting 8
Bootstrap[39]: Time 0.778951 seconds, bootstrap likelihood -13005.903924, best rearrangement setting 13
Bootstrap[40]: Time 0.878975 seconds, bootstrap likelihood -13280.094068, best rearrangement setting 13
Bootstrap[41]: Time 0.889659 seconds, bootstrap likelihood -12733.580648, best rearrangement setting 10
Bootstrap[42]: Time 0.789520 seconds, bootstrap likelihood -12821.152327, best rearrangement setting 5
Bootstrap[43]: Time 0.848841 seconds, bootstrap likelihood -12890.574097, best rearrangement setting 14
Bootstrap[44]: Time 0.742852 seconds, bootstrap likelihood -12380.003870, best rearrangement setting 10
Bootstrap[45]: Time 0.785689 seconds, bootstrap likelihood -13260.865452, best rearrangement setting 15
Bootstrap[46]: Time 0.810201 seconds, bootstrap likelihood -12763.537323, best rearrangement setting 14
Bootstrap[47]: Time 0.783891 seconds, bootstrap likelihood -12311.285087, best rearrangement setting 8
Bootstrap[48]: Time 0.860646 seconds, bootstrap likelihood -13161.350623, best rearrangement setting 6
Bootstrap[49]: Time 0.871824 seconds, bootstrap likelihood -12947.670267, best rearrangement setting 7
Bootstrap[50]: Time 0.867084 seconds, bootstrap likelihood -13133.992385, best rearrangement setting 7
Bootstrap[51]: Time 0.932246 seconds, bootstrap likelihood -12709.065874, best rearrangement setting 11
Bootstrap[52]: Time 0.743396 seconds, bootstrap likelihood -13475.779523, best rearrangement setting 12
Bootstrap[53]: Time 0.855421 seconds, bootstrap likelihood -13033.856300, best rearrangement setting 8
Bootstrap[54]: Time 0.718130 seconds, bootstrap likelihood -12540.755022, best rearrangement setting 9
Bootstrap[55]: Time 0.900432 seconds, bootstrap likelihood -12802.616119, best rearrangement setting 11
Bootstrap[56]: Time 0.836405 seconds, bootstrap likelihood -13363.851013, best rearrangement setting 5
Bootstrap[57]: Time 0.821730 seconds, bootstrap likelihood -12955.196775, best rearrangement setting 7
Bootstrap[58]: Time 0.832178 seconds, bootstrap likelihood -13529.530181, best rearrangement setting 10
Bootstrap[59]: Time 0.934133 seconds, bootstrap likelihood -13067.139531, best rearrangement setting 9
Bootstrap[60]: Time 0.914691 seconds, bootstrap likelihood -13369.235270, best rearrangement setting 7
Bootstrap[61]: Time 0.933163 seconds, bootstrap likelihood -13002.344258, best rearrangement setting 5
Bootstrap[62]: Time 0.790067 seconds, bootstrap likelihood -12647.893338, best rearrangement setting 11
Bootstrap[63]: Time 0.794757 seconds, bootstrap likelihood -13248.708360, best rearrangement setting 12
Bootstrap[64]: Time 0.798500 seconds, bootstrap likelihood -13026.199514, best rearrangement setting 7
Bootstrap[65]: Time 0.814538 seconds, bootstrap likelihood -12767.370583, best rearrangement setting 5
Bootstrap[66]: Time 0.904090 seconds, bootstrap likelihood -12979.822471, best rearrangement setting 5
Bootstrap[67]: Time 0.804412 seconds, bootstrap likelihood -12773.685325, best rearrangement setting 15
Bootstrap[68]: Time 0.926490 seconds, bootstrap likelihood -13074.716622, best rearrangement setting 11
Bootstrap[69]: Time 0.840657 seconds, bootstrap likelihood -12340.649391, best rearrangement setting 5
Bootstrap[70]: Time 0.775258 seconds, bootstrap likelihood -12268.456949, best rearrangement setting 8
Bootstrap[71]: Time 0.865731 seconds, bootstrap likelihood -12792.536703, best rearrangement setting 10
Bootstrap[72]: Time 0.807056 seconds, bootstrap likelihood -13066.550063, best rearrangement setting 11
Bootstrap[73]: Time 0.805841 seconds, bootstrap likelihood -12502.328444, best rearrangement setting 9
Bootstrap[74]: Time 0.812917 seconds, bootstrap likelihood -13130.948857, best rearrangement setting 5
Bootstrap[75]: Time 0.774491 seconds, bootstrap likelihood -12674.971372, best rearrangement setting 8
Bootstrap[76]: Time 0.810422 seconds, bootstrap likelihood -12856.829071, best rearrangement setting 9
Bootstrap[77]: Time 0.786073 seconds, bootstrap likelihood -12235.750599, best rearrangement setting 11
Bootstrap[78]: Time 0.825018 seconds, bootstrap likelihood -12775.158337, best rearrangement setting 15
Bootstrap[79]: Time 0.899883 seconds, bootstrap likelihood -12960.560045, best rearrangement setting 9
Bootstrap[80]: Time 1.024086 seconds, bootstrap likelihood -13587.049426, best rearrangement setting 15
Bootstrap[81]: Time 0.783349 seconds, bootstrap likelihood -12724.746603, best rearrangement setting 7
Bootstrap[82]: Time 0.372855 seconds, bootstrap likelihood -13261.698284, best rearrangement setting 6
Bootstrap[83]: Time 0.774570 seconds, bootstrap likelihood -12680.559307, best rearrangement setting 10
Bootstrap[84]: Time 0.854196 seconds, bootstrap likelihood -12762.965152, best rearrangement setting 11
Bootstrap[85]: Time 0.892223 seconds, bootstrap likelihood -13505.980875, best rearrangement setting 8
Bootstrap[86]: Time 0.770345 seconds, bootstrap likelihood -12659.401262, best rearrangement setting 7
Bootstrap[87]: Time 0.947426 seconds, bootstrap likelihood -13087.826852, best rearrangement setting 7
Bootstrap[88]: Time 0.782910 seconds, bootstrap likelihood -12799.635089, best rearrangement setting 12
Bootstrap[89]: Time 0.947731 seconds, bootstrap likelihood -13204.484998, best rearrangement setting 10
Bootstrap[90]: Time 0.915598 seconds, bootstrap likelihood -13548.679874, best rearrangement setting 8
Bootstrap[91]: Time 0.890805 seconds, bootstrap likelihood -12955.217110, best rearrangement setting 12
Bootstrap[92]: Time 0.932226 seconds, bootstrap likelihood -12697.271302, best rearrangement setting 13
Bootstrap[93]: Time 0.819056 seconds, bootstrap likelihood -12795.852891, best rearrangement setting 15
Bootstrap[94]: Time 0.800019 seconds, bootstrap likelihood -12831.374682, best rearrangement setting 5
Bootstrap[95]: Time 0.936592 seconds, bootstrap likelihood -13608.073855, best rearrangement setting 5
Bootstrap[96]: Time 0.883979 seconds, bootstrap likelihood -12849.567231, best rearrangement setting 13
Bootstrap[97]: Time 0.791929 seconds, bootstrap likelihood -12449.100782, best rearrangement setting 11
Bootstrap[98]: Time 0.821028 seconds, bootstrap likelihood -13247.325480, best rearrangement setting 6
Bootstrap[99]: Time 0.866657 seconds, bootstrap likelihood -13223.778974, best rearrangement setting 14


Overall Time for 100 Rapid Bootstraps 84.020092 seconds
Average Time per Rapid Bootstrap 0.840201 seconds

Starting ML Search ...

Fast ML optimization finished

Fast ML search Time: 50.261127 seconds

Slow ML Search 0 Likelihood: -13597.457158
Slow ML Search 1 Likelihood: -13597.457158
Slow ML Search 2 Likelihood: -13597.457159
Slow ML Search 3 Likelihood: -13597.457159
Slow ML Search 4 Likelihood: -13597.457159
Slow ML Search 5 Likelihood: -13597.457162
Slow ML Search 6 Likelihood: -13597.457162
Slow ML Search 7 Likelihood: -13597.457162
Slow ML Search 8 Likelihood: -13597.457169
Slow ML Search 9 Likelihood: -13597.457169
Slow ML optimization finished

Slow ML search Time: 31.973428 seconds
Thorough ML search Time: 11.492794 seconds

Final ML Optimization Likelihood: -13597.452474

Model Information:

Model Parameters of Partition 0, Name: No Name Provided, Type of Data: DNA
alpha: 1.005653
Tree-Length: 12.995391
rate A <-> C: 1.190083
rate A <-> G: 1.064367
rate A <-> T: 1.154902
rate C <-> G: 0.979202
rate C <-> T: 1.020047
rate G <-> T: 1.000000

freq pi(A): 0.231726
freq pi(C): 0.248274
freq pi(G): 0.272199
freq pi(T): 0.247801


ML search took 93.728153 secs or 0.026036 hours

Combined Bootstrap and ML search took 177.748281 secs or 0.049375 hours

Drawing Bootstrap Support Values on best-scoring ML tree ...



Found 1 tree in File /home/suz11001/sept30/raxml/not-scaled/150aa/domain.40/domain_0.2IS/RAxML_bestTree.pre_transfer



Found 1 tree in File /home/suz11001/sept30/raxml/not-scaled/150aa/domain.40/domain_0.2IS/RAxML_bestTree.pre_transfer

Program execution info written to /home/suz11001/sept30/raxml/not-scaled/150aa/domain.40/domain_0.2IS/RAxML_info.pre_transfer
All 100 bootstrapped trees written to: /home/suz11001/sept30/raxml/not-scaled/150aa/domain.40/domain_0.2IS/RAxML_bootstrap.pre_transfer

Best-scoring ML tree written to: /home/suz11001/sept30/raxml/not-scaled/150aa/domain.40/domain_0.2IS/RAxML_bestTree.pre_transfer

Best-scoring ML tree with support values written to: /home/suz11001/sept30/raxml/not-scaled/150aa/domain.40/domain_0.2IS/RAxML_bipartitions.pre_transfer

Best-scoring ML tree with support values as branch labels written to: /home/suz11001/sept30/raxml/not-scaled/150aa/domain.40/domain_0.2IS/RAxML_bipartitionsBranchLabels.pre_transfer

Overall execution time for full ML analysis: 177.751198 secs or 0.049375 hours or 0.002057 days


RAxML can't, parse the alignment file as phylip file 
it will now try to parse it as FASTA file



Using BFGS method to optimize GTR rate parameters, to disable this specify "--no-bfgs" 



This is RAxML version 8.2.12 released by Alexandros Stamatakis on May 2018.

With greatly appreciated code contributions by:
Andre Aberer      (HITS)
Simon Berger      (HITS)
Alexey Kozlov     (HITS)
Kassian Kobert    (HITS)
David Dao         (KIT and HITS)
Sarah Lutteropp   (KIT and HITS)
Nick Pattengale   (Sandia)
Wayne Pfeiffer    (SDSC)
Akifumi S. Tanabe (NRIFS)
Charlie Taylor    (UF)


Alignment has 597 distinct alignment patterns

Proportion of gaps and completely undetermined characters in this alignment: 0.00%

RAxML rapid bootstrapping and subsequent ML search

Using 1 distinct models/data partitions with joint branch length optimization



Executing 100 rapid bootstrap inferences and thereafter a thorough ML search 

All free model parameters will be estimated by RAxML
ML estimate of 25 per site rate categories

Likelihood of final tree will be evaluated and optimized under GAMMA

GAMMA Model parameters will be estimated up to an accuracy of 0.1000000000 Log Likelihood units

Partition: 0
Alignment Patterns: 597
Name: No Name Provided
DataType: DNA
Substitution Matrix: GTR




RAxML was called as follows:

raxmlHPC-SSE3 -f a -p 13579 -N 100 -m GTRCAT -x 12345 -s /home/suz11001/sept30/seqGen/not-scaled/150aa/domain.40/domain_0.2IS/seqs/genes/post_transfer/gene.pruned.tree -n post_transfer 



Time for BS model parameter optimization 0.351219
Bootstrap[0]: Time 1.438647 seconds, bootstrap likelihood -18561.657994, best rearrangement setting 13
Bootstrap[1]: Time 1.003457 seconds, bootstrap likelihood -18224.211069, best rearrangement setting 13
Bootstrap[2]: Time 1.104232 seconds, bootstrap likelihood -17957.756866, best rearrangement setting 12
Bootstrap[3]: Time 0.972528 seconds, bootstrap likelihood -18355.679104, best rearrangement setting 15
Bootstrap[4]: Time 1.040174 seconds, bootstrap likelihood -18204.378839, best rearrangement setting 10
Bootstrap[5]: Time 0.987447 seconds, bootstrap likelihood -18203.936054, best rearrangement setting 10
Bootstrap[6]: Time 0.946844 seconds, bootstrap likelihood -18229.823917, best rearrangement setting 6
Bootstrap[7]: Time 0.995433 seconds, bootstrap likelihood -18432.852566, best rearrangement setting 14
Bootstrap[8]: Time 1.110153 seconds, bootstrap likelihood -18480.736716, best rearrangement setting 5
Bootstrap[9]: Time 1.022537 seconds, bootstrap likelihood -17766.794788, best rearrangement setting 7
Bootstrap[10]: Time 1.018182 seconds, bootstrap likelihood -18769.081165, best rearrangement setting 7
Bootstrap[11]: Time 0.408854 seconds, bootstrap likelihood -17962.795468, best rearrangement setting 5
Bootstrap[12]: Time 1.052156 seconds, bootstrap likelihood -18897.122131, best rearrangement setting 8
Bootstrap[13]: Time 1.074546 seconds, bootstrap likelihood -18903.934994, best rearrangement setting 7
Bootstrap[14]: Time 1.082295 seconds, bootstrap likelihood -18471.954024, best rearrangement setting 12
Bootstrap[15]: Time 0.988329 seconds, bootstrap likelihood -18683.285019, best rearrangement setting 15
Bootstrap[16]: Time 0.952014 seconds, bootstrap likelihood -18449.332580, best rearrangement setting 12
Bootstrap[17]: Time 1.086257 seconds, bootstrap likelihood -19111.008903, best rearrangement setting 12
Bootstrap[18]: Time 1.052231 seconds, bootstrap likelihood -18210.027502, best rearrangement setting 5
Bootstrap[19]: Time 0.466034 seconds, bootstrap likelihood -18209.824877, best rearrangement setting 8
Bootstrap[20]: Time 0.960762 seconds, bootstrap likelihood -18466.281393, best rearrangement setting 10
Bootstrap[21]: Time 0.913828 seconds, bootstrap likelihood -18060.559552, best rearrangement setting 6
Bootstrap[22]: Time 1.021108 seconds, bootstrap likelihood -18035.469409, best rearrangement setting 5
Bootstrap[23]: Time 0.973875 seconds, bootstrap likelihood -17916.388059, best rearrangement setting 7
Bootstrap[24]: Time 0.980487 seconds, bootstrap likelihood -18671.059227, best rearrangement setting 8
Bootstrap[25]: Time 0.983092 seconds, bootstrap likelihood -18621.972358, best rearrangement setting 6
Bootstrap[26]: Time 1.041233 seconds, bootstrap likelihood -18324.230052, best rearrangement setting 12
Bootstrap[27]: Time 0.876982 seconds, bootstrap likelihood -18553.452636, best rearrangement setting 10
Bootstrap[28]: Time 1.005177 seconds, bootstrap likelihood -18694.996505, best rearrangement setting 11
Bootstrap[29]: Time 0.953095 seconds, bootstrap likelihood -17887.822925, best rearrangement setting 12
Bootstrap[30]: Time 0.990641 seconds, bootstrap likelihood -18515.476135, best rearrangement setting 15
Bootstrap[31]: Time 1.027353 seconds, bootstrap likelihood -18633.054460, best rearrangement setting 15
Bootstrap[32]: Time 0.998446 seconds, bootstrap likelihood -17451.844637, best rearrangement setting 6
Bootstrap[33]: Time 1.007318 seconds, bootstrap likelihood -17684.877883, best rearrangement setting 15
Bootstrap[34]: Time 1.055935 seconds, bootstrap likelihood -18286.915839, best rearrangement setting 11
Bootstrap[35]: Time 0.928290 seconds, bootstrap likelihood -18412.118567, best rearrangement setting 8
Bootstrap[36]: Time 0.916775 seconds, bootstrap likelihood -17049.141863, best rearrangement setting 9
Bootstrap[37]: Time 1.042113 seconds, bootstrap likelihood -19065.370953, best rearrangement setting 11
Bootstrap[38]: Time 0.996497 seconds, bootstrap likelihood -18283.630734, best rearrangement setting 8
Bootstrap[39]: Time 1.002287 seconds, bootstrap likelihood -17871.524570, best rearrangement setting 13
Bootstrap[40]: Time 0.954242 seconds, bootstrap likelihood -18379.399286, best rearrangement setting 13
Bootstrap[41]: Time 1.019562 seconds, bootstrap likelihood -18184.711502, best rearrangement setting 10
Bootstrap[42]: Time 1.068242 seconds, bootstrap likelihood -17942.083239, best rearrangement setting 5
Bootstrap[43]: Time 0.937799 seconds, bootstrap likelihood -17929.442486, best rearrangement setting 14
Bootstrap[44]: Time 0.954277 seconds, bootstrap likelihood -18654.916492, best rearrangement setting 10
Bootstrap[45]: Time 1.022146 seconds, bootstrap likelihood -18726.578623, best rearrangement setting 15
Bootstrap[46]: Time 1.045432 seconds, bootstrap likelihood -18053.473243, best rearrangement setting 14
Bootstrap[47]: Time 0.953892 seconds, bootstrap likelihood -18127.190696, best rearrangement setting 8
Bootstrap[48]: Time 0.992894 seconds, bootstrap likelihood -18557.429790, best rearrangement setting 6
Bootstrap[49]: Time 0.956601 seconds, bootstrap likelihood -17675.329002, best rearrangement setting 7
Bootstrap[50]: Time 0.970452 seconds, bootstrap likelihood -18069.980624, best rearrangement setting 7
Bootstrap[51]: Time 1.020188 seconds, bootstrap likelihood -18915.270954, best rearrangement setting 11
Bootstrap[52]: Time 0.932387 seconds, bootstrap likelihood -18178.851707, best rearrangement setting 12
Bootstrap[53]: Time 0.971521 seconds, bootstrap likelihood -18469.822362, best rearrangement setting 8
Bootstrap[54]: Time 0.924358 seconds, bootstrap likelihood -18186.021642, best rearrangement setting 9
Bootstrap[55]: Time 1.075745 seconds, bootstrap likelihood -18654.909777, best rearrangement setting 11
Bootstrap[56]: Time 0.917392 seconds, bootstrap likelihood -17842.692445, best rearrangement setting 5
Bootstrap[57]: Time 1.131301 seconds, bootstrap likelihood -18981.297467, best rearrangement setting 7
Bootstrap[58]: Time 0.964488 seconds, bootstrap likelihood -18350.606442, best rearrangement setting 10
Bootstrap[59]: Time 1.023241 seconds, bootstrap likelihood -18291.817114, best rearrangement setting 9
Bootstrap[60]: Time 0.936949 seconds, bootstrap likelihood -18372.541809, best rearrangement setting 7
Bootstrap[61]: Time 1.016168 seconds, bootstrap likelihood -18889.817779, best rearrangement setting 5
Bootstrap[62]: Time 1.038921 seconds, bootstrap likelihood -18544.798040, best rearrangement setting 11
Bootstrap[63]: Time 0.979094 seconds, bootstrap likelihood -18641.567350, best rearrangement setting 12
Bootstrap[64]: Time 0.920127 seconds, bootstrap likelihood -17617.479377, best rearrangement setting 7
Bootstrap[65]: Time 0.970824 seconds, bootstrap likelihood -17944.539656, best rearrangement setting 5
Bootstrap[66]: Time 0.995601 seconds, bootstrap likelihood -18327.717102, best rearrangement setting 5
Bootstrap[67]: Time 0.965562 seconds, bootstrap likelihood -18633.792684, best rearrangement setting 15
Bootstrap[68]: Time 1.006796 seconds, bootstrap likelihood -18711.599776, best rearrangement setting 11
Bootstrap[69]: Time 1.008958 seconds, bootstrap likelihood -18360.409135, best rearrangement setting 5
Bootstrap[70]: Time 0.979675 seconds, bootstrap likelihood -18525.250664, best rearrangement setting 8
Bootstrap[71]: Time 1.019803 seconds, bootstrap likelihood -18374.997639, best rearrangement setting 10
Bootstrap[72]: Time 0.948607 seconds, bootstrap likelihood -17751.798506, best rearrangement setting 11
Bootstrap[73]: Time 0.942258 seconds, bootstrap likelihood -18485.711033, best rearrangement setting 9
Bootstrap[74]: Time 0.987135 seconds, bootstrap likelihood -18320.302983, best rearrangement setting 5
Bootstrap[75]: Time 1.039455 seconds, bootstrap likelihood -18395.825860, best rearrangement setting 8
Bootstrap[76]: Time 0.855193 seconds, bootstrap likelihood -17708.080923, best rearrangement setting 9
Bootstrap[77]: Time 0.966765 seconds, bootstrap likelihood -18547.484681, best rearrangement setting 11
Bootstrap[78]: Time 0.967624 seconds, bootstrap likelihood -18854.174443, best rearrangement setting 15
Bootstrap[79]: Time 0.981521 seconds, bootstrap likelihood -17872.867345, best rearrangement setting 9
Bootstrap[80]: Time 0.958163 seconds, bootstrap likelihood -17904.063462, best rearrangement setting 15
Bootstrap[81]: Time 0.909322 seconds, bootstrap likelihood -18309.691762, best rearrangement setting 7
Bootstrap[82]: Time 0.999318 seconds, bootstrap likelihood -18764.540625, best rearrangement setting 6
Bootstrap[83]: Time 0.949165 seconds, bootstrap likelihood -18150.057742, best rearrangement setting 10
Bootstrap[84]: Time 1.001650 seconds, bootstrap likelihood -18335.738345, best rearrangement setting 11
Bootstrap[85]: Time 0.900211 seconds, bootstrap likelihood -18611.398586, best rearrangement setting 8
Bootstrap[86]: Time 1.049614 seconds, bootstrap likelihood -18481.594942, best rearrangement setting 7
Bootstrap[87]: Time 1.026888 seconds, bootstrap likelihood -18802.952507, best rearrangement setting 7
Bootstrap[88]: Time 0.916092 seconds, bootstrap likelihood -18641.017295, best rearrangement setting 12
Bootstrap[89]: Time 1.040183 seconds, bootstrap likelihood -18207.663906, best rearrangement setting 10
Bootstrap[90]: Time 0.486301 seconds, bootstrap likelihood -18122.428665, best rearrangement setting 8
Bootstrap[91]: Time 1.048328 seconds, bootstrap likelihood -18930.142371, best rearrangement setting 12
Bootstrap[92]: Time 1.115125 seconds, bootstrap likelihood -18775.998597, best rearrangement setting 13
Bootstrap[93]: Time 0.956870 seconds, bootstrap likelihood -19062.355847, best rearrangement setting 15
Bootstrap[94]: Time 0.971112 seconds, bootstrap likelihood -18056.976281, best rearrangement setting 5
Bootstrap[95]: Time 1.055070 seconds, bootstrap likelihood -18348.161712, best rearrangement setting 5
Bootstrap[96]: Time 0.963035 seconds, bootstrap likelihood -17805.944242, best rearrangement setting 13
Bootstrap[97]: Time 1.034823 seconds, bootstrap likelihood -18779.743254, best rearrangement setting 11
Bootstrap[98]: Time 1.234243 seconds, bootstrap likelihood -18259.491724, best rearrangement setting 6
Bootstrap[99]: Time 0.977914 seconds, bootstrap likelihood -18609.360273, best rearrangement setting 14


Overall Time for 100 Rapid Bootstraps 98.458020 seconds
Average Time per Rapid Bootstrap 0.984580 seconds

Starting ML Search ...

Fast ML optimization finished

Fast ML search Time: 78.381954 seconds

Slow ML Search 0 Likelihood: -19243.241791
Slow ML Search 1 Likelihood: -19243.241791
Slow ML Search 2 Likelihood: -19243.241791
Slow ML Search 3 Likelihood: -19243.241791
Slow ML Search 4 Likelihood: -19243.241791
Slow ML Search 5 Likelihood: -19243.241791
Slow ML Search 6 Likelihood: -19243.241791
Slow ML Search 7 Likelihood: -19243.241791
Slow ML Search 8 Likelihood: -19243.241791
Slow ML Search 9 Likelihood: -19243.241791
Slow ML optimization finished

Slow ML search Time: 40.190554 seconds
Thorough ML search Time: 16.651245 seconds

Final ML Optimization Likelihood: -19243.241575

Model Information:

Model Parameters of Partition 0, Name: No Name Provided, Type of Data: DNA
alpha: 1.059055
Tree-Length: 12.533133
rate A <-> C: 1.193600
rate A <-> G: 1.074361
rate A <-> T: 1.140193
rate C <-> G: 0.975698
rate C <-> T: 1.039910
rate G <-> T: 1.000000

freq pi(A): 0.238163
freq pi(C): 0.243938
freq pi(G): 0.266971
freq pi(T): 0.250929


ML search took 135.224686 secs or 0.037562 hours

Combined Bootstrap and ML search took 233.682741 secs or 0.064912 hours

Drawing Bootstrap Support Values on best-scoring ML tree ...



Found 1 tree in File /home/suz11001/sept30/raxml/not-scaled/150aa/domain.40/domain_0.2IS/RAxML_bestTree.post_transfer



Found 1 tree in File /home/suz11001/sept30/raxml/not-scaled/150aa/domain.40/domain_0.2IS/RAxML_bestTree.post_transfer

Program execution info written to /home/suz11001/sept30/raxml/not-scaled/150aa/domain.40/domain_0.2IS/RAxML_info.post_transfer
All 100 bootstrapped trees written to: /home/suz11001/sept30/raxml/not-scaled/150aa/domain.40/domain_0.2IS/RAxML_bootstrap.post_transfer

Best-scoring ML tree written to: /home/suz11001/sept30/raxml/not-scaled/150aa/domain.40/domain_0.2IS/RAxML_bestTree.post_transfer

Best-scoring ML tree with support values written to: /home/suz11001/sept30/raxml/not-scaled/150aa/domain.40/domain_0.2IS/RAxML_bipartitions.post_transfer

Best-scoring ML tree with support values as branch labels written to: /home/suz11001/sept30/raxml/not-scaled/150aa/domain.40/domain_0.2IS/RAxML_bipartitionsBranchLabels.post_transfer

Overall execution time for full ML analysis: 233.688084 secs or 0.064913 hours or 0.002705 days

mkdir: cannot create directory ‘post_transfer’: File exists
mv: target ‘pre_transfer/’ is not a directory
