
RAxML can't, parse the alignment file as phylip file 
it will now try to parse it as FASTA file



Using BFGS method to optimize GTR rate parameters, to disable this specify "--no-bfgs" 



This is RAxML version 8.2.12 released by Alexandros Stamatakis on May 2018.

With greatly appreciated code contributions by:
Andre Aberer      (HITS)
Simon Berger      (HITS)
Alexey Kozlov     (HITS)
Kassian Kobert    (HITS)
David Dao         (KIT and HITS)
Sarah Lutteropp   (KIT and HITS)
Nick Pattengale   (Sandia)
Wayne Pfeiffer    (SDSC)
Akifumi S. Tanabe (NRIFS)
Charlie Taylor    (UF)


Alignment has 424 distinct alignment patterns

Proportion of gaps and completely undetermined characters in this alignment: 0.00%

RAxML rapid bootstrapping and subsequent ML search

Using 1 distinct models/data partitions with joint branch length optimization



Executing 100 rapid bootstrap inferences and thereafter a thorough ML search 

All free model parameters will be estimated by RAxML
ML estimate of 25 per site rate categories

Likelihood of final tree will be evaluated and optimized under GAMMA

GAMMA Model parameters will be estimated up to an accuracy of 0.1000000000 Log Likelihood units

Partition: 0
Alignment Patterns: 424
Name: No Name Provided
DataType: DNA
Substitution Matrix: GTR




RAxML was called as follows:

raxmlHPC-SSE3 -f a -p 13579 -N 100 -m GTRCAT -x 12345 -s /home/suz11001/sept30/seqGen/not-scaled/150aa/domain.60/domain_0.8IS/seqs/genes/pre_transfer/gene.pruned.tree -n pre_transfer 



Time for BS model parameter optimization 0.271514
Bootstrap[0]: Time 1.132763 seconds, bootstrap likelihood -11988.321244, best rearrangement setting 13
Bootstrap[1]: Time 0.829923 seconds, bootstrap likelihood -12503.191145, best rearrangement setting 13
Bootstrap[2]: Time 0.833692 seconds, bootstrap likelihood -12326.110745, best rearrangement setting 12
Bootstrap[3]: Time 0.876242 seconds, bootstrap likelihood -12859.345325, best rearrangement setting 15
Bootstrap[4]: Time 0.852352 seconds, bootstrap likelihood -12921.056459, best rearrangement setting 10
Bootstrap[5]: Time 0.896417 seconds, bootstrap likelihood -12636.825336, best rearrangement setting 10
Bootstrap[6]: Time 0.852370 seconds, bootstrap likelihood -12461.526892, best rearrangement setting 6
Bootstrap[7]: Time 0.837545 seconds, bootstrap likelihood -12478.379175, best rearrangement setting 14
Bootstrap[8]: Time 0.810623 seconds, bootstrap likelihood -13036.455982, best rearrangement setting 5
Bootstrap[9]: Time 0.760784 seconds, bootstrap likelihood -12547.354719, best rearrangement setting 7
Bootstrap[10]: Time 0.858833 seconds, bootstrap likelihood -12758.256030, best rearrangement setting 7
Bootstrap[11]: Time 1.008990 seconds, bootstrap likelihood -12771.012563, best rearrangement setting 5
Bootstrap[12]: Time 0.751068 seconds, bootstrap likelihood -12397.830768, best rearrangement setting 8
Bootstrap[13]: Time 1.038938 seconds, bootstrap likelihood -12262.997847, best rearrangement setting 7
Bootstrap[14]: Time 0.772641 seconds, bootstrap likelihood -12011.818095, best rearrangement setting 12
Bootstrap[15]: Time 0.773874 seconds, bootstrap likelihood -12314.056589, best rearrangement setting 15
Bootstrap[16]: Time 0.703823 seconds, bootstrap likelihood -11650.871670, best rearrangement setting 12
Bootstrap[17]: Time 0.803063 seconds, bootstrap likelihood -12147.397060, best rearrangement setting 12
Bootstrap[18]: Time 0.806200 seconds, bootstrap likelihood -12702.284335, best rearrangement setting 5
Bootstrap[19]: Time 0.353772 seconds, bootstrap likelihood -12292.164809, best rearrangement setting 8
Bootstrap[20]: Time 0.370810 seconds, bootstrap likelihood -12551.571099, best rearrangement setting 10
Bootstrap[21]: Time 0.777751 seconds, bootstrap likelihood -12081.612355, best rearrangement setting 6
Bootstrap[22]: Time 0.818891 seconds, bootstrap likelihood -12573.128982, best rearrangement setting 5
Bootstrap[23]: Time 0.944695 seconds, bootstrap likelihood -13076.221173, best rearrangement setting 7
Bootstrap[24]: Time 0.901016 seconds, bootstrap likelihood -12103.229312, best rearrangement setting 8
Bootstrap[25]: Time 0.813320 seconds, bootstrap likelihood -12623.935916, best rearrangement setting 6
Bootstrap[26]: Time 0.703744 seconds, bootstrap likelihood -11638.630812, best rearrangement setting 12
Bootstrap[27]: Time 0.401919 seconds, bootstrap likelihood -12729.939116, best rearrangement setting 10
Bootstrap[28]: Time 0.787275 seconds, bootstrap likelihood -12394.570460, best rearrangement setting 11
Bootstrap[29]: Time 0.830275 seconds, bootstrap likelihood -12668.908709, best rearrangement setting 12
Bootstrap[30]: Time 0.686136 seconds, bootstrap likelihood -12236.214231, best rearrangement setting 15
Bootstrap[31]: Time 0.782756 seconds, bootstrap likelihood -11906.102104, best rearrangement setting 15
Bootstrap[32]: Time 0.810351 seconds, bootstrap likelihood -12360.630136, best rearrangement setting 6
Bootstrap[33]: Time 0.795433 seconds, bootstrap likelihood -12196.671745, best rearrangement setting 15
Bootstrap[34]: Time 0.861716 seconds, bootstrap likelihood -12245.420521, best rearrangement setting 11
Bootstrap[35]: Time 0.781266 seconds, bootstrap likelihood -12601.219265, best rearrangement setting 8
Bootstrap[36]: Time 0.761402 seconds, bootstrap likelihood -11943.673420, best rearrangement setting 9
Bootstrap[37]: Time 0.800865 seconds, bootstrap likelihood -13087.998861, best rearrangement setting 11
Bootstrap[38]: Time 0.838493 seconds, bootstrap likelihood -12077.657731, best rearrangement setting 8
Bootstrap[39]: Time 0.750375 seconds, bootstrap likelihood -12208.595583, best rearrangement setting 13
Bootstrap[40]: Time 1.049592 seconds, bootstrap likelihood -13192.678957, best rearrangement setting 13
Bootstrap[41]: Time 0.884356 seconds, bootstrap likelihood -12651.185261, best rearrangement setting 10
Bootstrap[42]: Time 0.894332 seconds, bootstrap likelihood -12631.721582, best rearrangement setting 5
Bootstrap[43]: Time 0.740927 seconds, bootstrap likelihood -12580.739534, best rearrangement setting 14
Bootstrap[44]: Time 0.717735 seconds, bootstrap likelihood -11806.847247, best rearrangement setting 10
Bootstrap[45]: Time 0.338132 seconds, bootstrap likelihood -12523.892754, best rearrangement setting 15
Bootstrap[46]: Time 0.843975 seconds, bootstrap likelihood -12477.064200, best rearrangement setting 14
Bootstrap[47]: Time 0.778664 seconds, bootstrap likelihood -11930.844653, best rearrangement setting 8
Bootstrap[48]: Time 0.799170 seconds, bootstrap likelihood -12514.409543, best rearrangement setting 6
Bootstrap[49]: Time 0.852939 seconds, bootstrap likelihood -12497.074318, best rearrangement setting 7
Bootstrap[50]: Time 0.822170 seconds, bootstrap likelihood -12437.990343, best rearrangement setting 7
Bootstrap[51]: Time 0.741065 seconds, bootstrap likelihood -12367.235585, best rearrangement setting 11
Bootstrap[52]: Time 0.717623 seconds, bootstrap likelihood -12818.389720, best rearrangement setting 12
Bootstrap[53]: Time 0.839264 seconds, bootstrap likelihood -12596.924064, best rearrangement setting 8
Bootstrap[54]: Time 0.310155 seconds, bootstrap likelihood -12519.071721, best rearrangement setting 9
Bootstrap[55]: Time 0.796015 seconds, bootstrap likelihood -12717.419548, best rearrangement setting 11
Bootstrap[56]: Time 0.702278 seconds, bootstrap likelihood -12569.621121, best rearrangement setting 5
Bootstrap[57]: Time 0.885911 seconds, bootstrap likelihood -12268.620863, best rearrangement setting 7
Bootstrap[58]: Time 0.954201 seconds, bootstrap likelihood -12273.287473, best rearrangement setting 10
Bootstrap[59]: Time 0.971077 seconds, bootstrap likelihood -12654.575491, best rearrangement setting 9
Bootstrap[60]: Time 0.843696 seconds, bootstrap likelihood -12561.812602, best rearrangement setting 7
Bootstrap[61]: Time 0.913615 seconds, bootstrap likelihood -11483.341612, best rearrangement setting 5
Bootstrap[62]: Time 0.902726 seconds, bootstrap likelihood -12646.181508, best rearrangement setting 11
Bootstrap[63]: Time 0.376929 seconds, bootstrap likelihood -12197.077675, best rearrangement setting 12
Bootstrap[64]: Time 0.878377 seconds, bootstrap likelihood -12190.990213, best rearrangement setting 7
Bootstrap[65]: Time 0.820857 seconds, bootstrap likelihood -12317.511518, best rearrangement setting 5
Bootstrap[66]: Time 0.825931 seconds, bootstrap likelihood -12751.079842, best rearrangement setting 5
Bootstrap[67]: Time 0.912118 seconds, bootstrap likelihood -12607.417540, best rearrangement setting 15
Bootstrap[68]: Time 0.914076 seconds, bootstrap likelihood -12724.471225, best rearrangement setting 11
Bootstrap[69]: Time 0.699084 seconds, bootstrap likelihood -12253.290096, best rearrangement setting 5
Bootstrap[70]: Time 0.730718 seconds, bootstrap likelihood -11995.115536, best rearrangement setting 8
Bootstrap[71]: Time 0.385483 seconds, bootstrap likelihood -12878.150335, best rearrangement setting 10
Bootstrap[72]: Time 0.820852 seconds, bootstrap likelihood -12523.435798, best rearrangement setting 11
Bootstrap[73]: Time 0.723994 seconds, bootstrap likelihood -12133.316318, best rearrangement setting 9
Bootstrap[74]: Time 0.762386 seconds, bootstrap likelihood -12639.619979, best rearrangement setting 5
Bootstrap[75]: Time 0.802942 seconds, bootstrap likelihood -12204.439527, best rearrangement setting 8
Bootstrap[76]: Time 0.900484 seconds, bootstrap likelihood -12414.724012, best rearrangement setting 9
Bootstrap[77]: Time 0.767702 seconds, bootstrap likelihood -12207.542912, best rearrangement setting 11
Bootstrap[78]: Time 0.364499 seconds, bootstrap likelihood -12443.057820, best rearrangement setting 15
Bootstrap[79]: Time 0.805129 seconds, bootstrap likelihood -12877.255366, best rearrangement setting 9
Bootstrap[80]: Time 1.037939 seconds, bootstrap likelihood -12909.664666, best rearrangement setting 15
Bootstrap[81]: Time 0.880287 seconds, bootstrap likelihood -12801.023087, best rearrangement setting 7
Bootstrap[82]: Time 0.842694 seconds, bootstrap likelihood -12875.693641, best rearrangement setting 6
Bootstrap[83]: Time 0.803270 seconds, bootstrap likelihood -11946.087989, best rearrangement setting 10
Bootstrap[84]: Time 0.894784 seconds, bootstrap likelihood -12668.627942, best rearrangement setting 11
Bootstrap[85]: Time 0.803061 seconds, bootstrap likelihood -12583.362646, best rearrangement setting 8
Bootstrap[86]: Time 0.777659 seconds, bootstrap likelihood -12385.903831, best rearrangement setting 7
Bootstrap[87]: Time 0.718182 seconds, bootstrap likelihood -12886.405936, best rearrangement setting 7
Bootstrap[88]: Time 0.891698 seconds, bootstrap likelihood -12485.451118, best rearrangement setting 12
Bootstrap[89]: Time 1.009896 seconds, bootstrap likelihood -12168.005322, best rearrangement setting 10
Bootstrap[90]: Time 0.791803 seconds, bootstrap likelihood -12152.145801, best rearrangement setting 8
Bootstrap[91]: Time 0.748882 seconds, bootstrap likelihood -12463.185597, best rearrangement setting 12
Bootstrap[92]: Time 0.717643 seconds, bootstrap likelihood -12526.238100, best rearrangement setting 13
Bootstrap[93]: Time 0.379914 seconds, bootstrap likelihood -12242.379905, best rearrangement setting 15
Bootstrap[94]: Time 0.813789 seconds, bootstrap likelihood -12476.168805, best rearrangement setting 5
Bootstrap[95]: Time 0.972041 seconds, bootstrap likelihood -12443.693441, best rearrangement setting 5
Bootstrap[96]: Time 0.799323 seconds, bootstrap likelihood -12024.144181, best rearrangement setting 13
Bootstrap[97]: Time 0.784084 seconds, bootstrap likelihood -12479.610151, best rearrangement setting 11
Bootstrap[98]: Time 0.778618 seconds, bootstrap likelihood -12422.765140, best rearrangement setting 6
Bootstrap[99]: Time 0.816852 seconds, bootstrap likelihood -12258.906156, best rearrangement setting 14


Overall Time for 100 Rapid Bootstraps 78.849451 seconds
Average Time per Rapid Bootstrap 0.788495 seconds

Starting ML Search ...

Fast ML optimization finished

Fast ML search Time: 56.813680 seconds

Slow ML Search 0 Likelihood: -13091.462022
Slow ML Search 1 Likelihood: -13091.462022
Slow ML Search 2 Likelihood: -13091.462022
Slow ML Search 3 Likelihood: -13091.462022
Slow ML Search 4 Likelihood: -13091.462022
Slow ML Search 5 Likelihood: -13091.462022
Slow ML Search 6 Likelihood: -13091.462022
Slow ML Search 7 Likelihood: -13091.462022
Slow ML Search 8 Likelihood: -13091.462022
Slow ML Search 9 Likelihood: -13091.462022
Slow ML optimization finished

Slow ML search Time: 32.117429 seconds
Thorough ML search Time: 11.476851 seconds

Final ML Optimization Likelihood: -13090.694411

Model Information:

Model Parameters of Partition 0, Name: No Name Provided, Type of Data: DNA
alpha: 0.932503
Tree-Length: 12.483640
rate A <-> C: 0.950628
rate A <-> G: 0.896482
rate A <-> T: 1.057938
rate C <-> G: 0.901697
rate C <-> T: 1.074874
rate G <-> T: 1.000000

freq pi(A): 0.248700
freq pi(C): 0.242222
freq pi(G): 0.270969
freq pi(T): 0.238109


ML search took 100.408832 secs or 0.027891 hours

Combined Bootstrap and ML search took 179.258315 secs or 0.049794 hours

Drawing Bootstrap Support Values on best-scoring ML tree ...



Found 1 tree in File /home/suz11001/sept30/raxml/not-scaled/150aa/domain.60/domain_0.8IS/RAxML_bestTree.pre_transfer



Found 1 tree in File /home/suz11001/sept30/raxml/not-scaled/150aa/domain.60/domain_0.8IS/RAxML_bestTree.pre_transfer

Program execution info written to /home/suz11001/sept30/raxml/not-scaled/150aa/domain.60/domain_0.8IS/RAxML_info.pre_transfer
All 100 bootstrapped trees written to: /home/suz11001/sept30/raxml/not-scaled/150aa/domain.60/domain_0.8IS/RAxML_bootstrap.pre_transfer

Best-scoring ML tree written to: /home/suz11001/sept30/raxml/not-scaled/150aa/domain.60/domain_0.8IS/RAxML_bestTree.pre_transfer

Best-scoring ML tree with support values written to: /home/suz11001/sept30/raxml/not-scaled/150aa/domain.60/domain_0.8IS/RAxML_bipartitions.pre_transfer

Best-scoring ML tree with support values as branch labels written to: /home/suz11001/sept30/raxml/not-scaled/150aa/domain.60/domain_0.8IS/RAxML_bipartitionsBranchLabels.pre_transfer

Overall execution time for full ML analysis: 179.263337 secs or 0.049795 hours or 0.002075 days


RAxML can't, parse the alignment file as phylip file 
it will now try to parse it as FASTA file



Using BFGS method to optimize GTR rate parameters, to disable this specify "--no-bfgs" 



This is RAxML version 8.2.12 released by Alexandros Stamatakis on May 2018.

With greatly appreciated code contributions by:
Andre Aberer      (HITS)
Simon Berger      (HITS)
Alexey Kozlov     (HITS)
Kassian Kobert    (HITS)
David Dao         (KIT and HITS)
Sarah Lutteropp   (KIT and HITS)
Nick Pattengale   (Sandia)
Wayne Pfeiffer    (SDSC)
Akifumi S. Tanabe (NRIFS)
Charlie Taylor    (UF)


Alignment has 664 distinct alignment patterns

Proportion of gaps and completely undetermined characters in this alignment: 0.00%

RAxML rapid bootstrapping and subsequent ML search

Using 1 distinct models/data partitions with joint branch length optimization



Executing 100 rapid bootstrap inferences and thereafter a thorough ML search 

All free model parameters will be estimated by RAxML
ML estimate of 25 per site rate categories

Likelihood of final tree will be evaluated and optimized under GAMMA

GAMMA Model parameters will be estimated up to an accuracy of 0.1000000000 Log Likelihood units

Partition: 0
Alignment Patterns: 664
Name: No Name Provided
DataType: DNA
Substitution Matrix: GTR




RAxML was called as follows:

raxmlHPC-SSE3 -f a -p 13579 -N 100 -m GTRCAT -x 12345 -s /home/suz11001/sept30/seqGen/not-scaled/150aa/domain.60/domain_0.8IS/seqs/genes/post_transfer/gene.pruned.tree -n post_transfer 



Time for BS model parameter optimization 0.393893
Bootstrap[0]: Time 1.630558 seconds, bootstrap likelihood -19794.248314, best rearrangement setting 13
Bootstrap[1]: Time 1.126391 seconds, bootstrap likelihood -19724.713570, best rearrangement setting 13
Bootstrap[2]: Time 1.317117 seconds, bootstrap likelihood -20085.496196, best rearrangement setting 12
Bootstrap[3]: Time 1.183253 seconds, bootstrap likelihood -19563.793654, best rearrangement setting 15
Bootstrap[4]: Time 1.223250 seconds, bootstrap likelihood -19806.426203, best rearrangement setting 10
Bootstrap[5]: Time 1.164335 seconds, bootstrap likelihood -20123.159293, best rearrangement setting 10
Bootstrap[6]: Time 0.988514 seconds, bootstrap likelihood -21018.785561, best rearrangement setting 6
Bootstrap[7]: Time 1.110394 seconds, bootstrap likelihood -19813.589556, best rearrangement setting 14
Bootstrap[8]: Time 1.113113 seconds, bootstrap likelihood -19720.608924, best rearrangement setting 5
Bootstrap[9]: Time 1.014536 seconds, bootstrap likelihood -19854.800134, best rearrangement setting 7
Bootstrap[10]: Time 0.946438 seconds, bootstrap likelihood -19186.579857, best rearrangement setting 7
Bootstrap[11]: Time 1.038632 seconds, bootstrap likelihood -20073.104262, best rearrangement setting 5
Bootstrap[12]: Time 1.057041 seconds, bootstrap likelihood -20209.254155, best rearrangement setting 8
Bootstrap[13]: Time 1.066846 seconds, bootstrap likelihood -19869.297156, best rearrangement setting 7
Bootstrap[14]: Time 1.212884 seconds, bootstrap likelihood -20200.123872, best rearrangement setting 12
Bootstrap[15]: Time 1.054174 seconds, bootstrap likelihood -19704.503226, best rearrangement setting 15
Bootstrap[16]: Time 1.135589 seconds, bootstrap likelihood -19045.867290, best rearrangement setting 12
Bootstrap[17]: Time 1.334717 seconds, bootstrap likelihood -20252.057641, best rearrangement setting 12
Bootstrap[18]: Time 1.085092 seconds, bootstrap likelihood -19571.204606, best rearrangement setting 5
Bootstrap[19]: Time 1.151785 seconds, bootstrap likelihood -19285.431711, best rearrangement setting 8
Bootstrap[20]: Time 1.154602 seconds, bootstrap likelihood -19667.036205, best rearrangement setting 10
Bootstrap[21]: Time 1.157882 seconds, bootstrap likelihood -20190.351932, best rearrangement setting 6
Bootstrap[22]: Time 1.195657 seconds, bootstrap likelihood -19651.456098, best rearrangement setting 5
Bootstrap[23]: Time 1.131055 seconds, bootstrap likelihood -20505.715359, best rearrangement setting 7
Bootstrap[24]: Time 1.084076 seconds, bootstrap likelihood -19805.467128, best rearrangement setting 8
Bootstrap[25]: Time 1.245021 seconds, bootstrap likelihood -19772.571678, best rearrangement setting 6
Bootstrap[26]: Time 1.072683 seconds, bootstrap likelihood -19614.882231, best rearrangement setting 12
Bootstrap[27]: Time 0.961307 seconds, bootstrap likelihood -19362.668933, best rearrangement setting 10
Bootstrap[28]: Time 0.414974 seconds, bootstrap likelihood -19400.147890, best rearrangement setting 11
Bootstrap[29]: Time 1.076910 seconds, bootstrap likelihood -19482.238523, best rearrangement setting 12
Bootstrap[30]: Time 1.116603 seconds, bootstrap likelihood -19975.561473, best rearrangement setting 15
Bootstrap[31]: Time 1.045815 seconds, bootstrap likelihood -19063.097167, best rearrangement setting 15
Bootstrap[32]: Time 1.243423 seconds, bootstrap likelihood -20276.712246, best rearrangement setting 6
Bootstrap[33]: Time 1.096788 seconds, bootstrap likelihood -19783.866145, best rearrangement setting 15
Bootstrap[34]: Time 1.131393 seconds, bootstrap likelihood -19448.482453, best rearrangement setting 11
Bootstrap[35]: Time 1.051603 seconds, bootstrap likelihood -20047.121408, best rearrangement setting 8
Bootstrap[36]: Time 1.198102 seconds, bootstrap likelihood -19733.855623, best rearrangement setting 9
Bootstrap[37]: Time 0.444104 seconds, bootstrap likelihood -19635.842493, best rearrangement setting 11
Bootstrap[38]: Time 1.015305 seconds, bootstrap likelihood -19691.162501, best rearrangement setting 8
Bootstrap[39]: Time 1.031424 seconds, bootstrap likelihood -19469.874812, best rearrangement setting 13
Bootstrap[40]: Time 1.230679 seconds, bootstrap likelihood -19637.530754, best rearrangement setting 13
Bootstrap[41]: Time 1.116226 seconds, bootstrap likelihood -19942.791900, best rearrangement setting 10
Bootstrap[42]: Time 1.065370 seconds, bootstrap likelihood -19821.119256, best rearrangement setting 5
Bootstrap[43]: Time 0.492547 seconds, bootstrap likelihood -19784.880055, best rearrangement setting 14
Bootstrap[44]: Time 1.060393 seconds, bootstrap likelihood -19486.063241, best rearrangement setting 10
Bootstrap[45]: Time 1.085735 seconds, bootstrap likelihood -19120.777851, best rearrangement setting 15
Bootstrap[46]: Time 1.119441 seconds, bootstrap likelihood -20301.636422, best rearrangement setting 14
Bootstrap[47]: Time 1.052511 seconds, bootstrap likelihood -19250.706382, best rearrangement setting 8
Bootstrap[48]: Time 1.120977 seconds, bootstrap likelihood -19908.795251, best rearrangement setting 6
Bootstrap[49]: Time 0.522732 seconds, bootstrap likelihood -20165.475845, best rearrangement setting 7
Bootstrap[50]: Time 1.058437 seconds, bootstrap likelihood -19874.619643, best rearrangement setting 7
Bootstrap[51]: Time 1.076543 seconds, bootstrap likelihood -20121.871958, best rearrangement setting 11
Bootstrap[52]: Time 1.103629 seconds, bootstrap likelihood -19276.534662, best rearrangement setting 12
Bootstrap[53]: Time 1.083582 seconds, bootstrap likelihood -20191.645105, best rearrangement setting 8
Bootstrap[54]: Time 1.066692 seconds, bootstrap likelihood -20303.753159, best rearrangement setting 9
Bootstrap[55]: Time 1.211797 seconds, bootstrap likelihood -19980.357352, best rearrangement setting 11
Bootstrap[56]: Time 1.123842 seconds, bootstrap likelihood -20268.656845, best rearrangement setting 5
Bootstrap[57]: Time 1.314262 seconds, bootstrap likelihood -19498.156900, best rearrangement setting 7
Bootstrap[58]: Time 1.105246 seconds, bootstrap likelihood -19366.428324, best rearrangement setting 10
Bootstrap[59]: Time 1.103374 seconds, bootstrap likelihood -20003.470519, best rearrangement setting 9
Bootstrap[60]: Time 1.108789 seconds, bootstrap likelihood -19447.689299, best rearrangement setting 7
Bootstrap[61]: Time 1.058741 seconds, bootstrap likelihood -19360.232099, best rearrangement setting 5
Bootstrap[62]: Time 1.048449 seconds, bootstrap likelihood -20393.338244, best rearrangement setting 11
Bootstrap[63]: Time 1.152825 seconds, bootstrap likelihood -19713.179102, best rearrangement setting 12
Bootstrap[64]: Time 0.978770 seconds, bootstrap likelihood -18837.809740, best rearrangement setting 7
Bootstrap[65]: Time 1.082543 seconds, bootstrap likelihood -19878.250076, best rearrangement setting 5
Bootstrap[66]: Time 1.071120 seconds, bootstrap likelihood -19661.034289, best rearrangement setting 5
Bootstrap[67]: Time 1.187767 seconds, bootstrap likelihood -19806.299619, best rearrangement setting 15
Bootstrap[68]: Time 1.027928 seconds, bootstrap likelihood -19787.144196, best rearrangement setting 11
Bootstrap[69]: Time 1.107794 seconds, bootstrap likelihood -19504.363752, best rearrangement setting 5
Bootstrap[70]: Time 1.184285 seconds, bootstrap likelihood -20054.809875, best rearrangement setting 8
Bootstrap[71]: Time 1.048632 seconds, bootstrap likelihood -19574.440281, best rearrangement setting 10
Bootstrap[72]: Time 1.073567 seconds, bootstrap likelihood -20341.499258, best rearrangement setting 11
Bootstrap[73]: Time 1.136456 seconds, bootstrap likelihood -20374.896169, best rearrangement setting 9
Bootstrap[74]: Time 1.191988 seconds, bootstrap likelihood -19844.104211, best rearrangement setting 5
Bootstrap[75]: Time 1.055577 seconds, bootstrap likelihood -19777.945335, best rearrangement setting 8
Bootstrap[76]: Time 1.144355 seconds, bootstrap likelihood -20360.650608, best rearrangement setting 9
Bootstrap[77]: Time 1.031256 seconds, bootstrap likelihood -20106.510543, best rearrangement setting 11
Bootstrap[78]: Time 1.199480 seconds, bootstrap likelihood -19776.583183, best rearrangement setting 15
Bootstrap[79]: Time 1.125413 seconds, bootstrap likelihood -20407.887869, best rearrangement setting 9
Bootstrap[80]: Time 1.259214 seconds, bootstrap likelihood -20145.193583, best rearrangement setting 15
Bootstrap[81]: Time 1.113453 seconds, bootstrap likelihood -20018.103144, best rearrangement setting 7
Bootstrap[82]: Time 1.088594 seconds, bootstrap likelihood -19558.259779, best rearrangement setting 6
Bootstrap[83]: Time 1.134312 seconds, bootstrap likelihood -19326.555094, best rearrangement setting 10
Bootstrap[84]: Time 1.139938 seconds, bootstrap likelihood -20492.013086, best rearrangement setting 11
Bootstrap[85]: Time 1.154413 seconds, bootstrap likelihood -20067.391760, best rearrangement setting 8
Bootstrap[86]: Time 0.954128 seconds, bootstrap likelihood -19407.541980, best rearrangement setting 7
Bootstrap[87]: Time 1.024599 seconds, bootstrap likelihood -20059.867163, best rearrangement setting 7
Bootstrap[88]: Time 1.121718 seconds, bootstrap likelihood -20044.501459, best rearrangement setting 12
Bootstrap[89]: Time 1.058866 seconds, bootstrap likelihood -19646.673389, best rearrangement setting 10
Bootstrap[90]: Time 1.096027 seconds, bootstrap likelihood -18961.040321, best rearrangement setting 8
Bootstrap[91]: Time 1.250658 seconds, bootstrap likelihood -19885.544985, best rearrangement setting 12
Bootstrap[92]: Time 1.240119 seconds, bootstrap likelihood -20609.453404, best rearrangement setting 13
Bootstrap[93]: Time 1.091234 seconds, bootstrap likelihood -19443.566807, best rearrangement setting 15
Bootstrap[94]: Time 1.105825 seconds, bootstrap likelihood -19688.409227, best rearrangement setting 5
Bootstrap[95]: Time 1.126689 seconds, bootstrap likelihood -20212.274841, best rearrangement setting 5
Bootstrap[96]: Time 1.121172 seconds, bootstrap likelihood -19769.313257, best rearrangement setting 13
Bootstrap[97]: Time 1.040996 seconds, bootstrap likelihood -20007.798107, best rearrangement setting 11
Bootstrap[98]: Time 1.051052 seconds, bootstrap likelihood -19429.775751, best rearrangement setting 6
Bootstrap[99]: Time 1.126388 seconds, bootstrap likelihood -20038.145046, best rearrangement setting 14


Overall Time for 100 Rapid Bootstraps 109.309850 seconds
Average Time per Rapid Bootstrap 1.093098 seconds

Starting ML Search ...

Fast ML optimization finished

Fast ML search Time: 94.000000 seconds

Slow ML Search 0 Likelihood: -20771.080737
Slow ML Search 1 Likelihood: -20771.080737
Slow ML Search 2 Likelihood: -20771.080737
Slow ML Search 3 Likelihood: -20771.080737
Slow ML Search 4 Likelihood: -20771.080737
Slow ML Search 5 Likelihood: -20771.080737
Slow ML Search 6 Likelihood: -20771.080737
Slow ML Search 7 Likelihood: -20771.080737
Slow ML Search 8 Likelihood: -20771.080737
Slow ML Search 9 Likelihood: -20771.080737
Slow ML optimization finished

Slow ML search Time: 45.019796 seconds
Thorough ML search Time: 16.557964 seconds

Final ML Optimization Likelihood: -20771.080755

Model Information:

Model Parameters of Partition 0, Name: No Name Provided, Type of Data: DNA
alpha: 0.895953
Tree-Length: 12.260416
rate A <-> C: 0.876580
rate A <-> G: 0.884657
rate A <-> T: 1.097801
rate C <-> G: 0.898872
rate C <-> T: 1.007849
rate G <-> T: 1.000000

freq pi(A): 0.239687
freq pi(C): 0.250532
freq pi(G): 0.273966
freq pi(T): 0.235816


ML search took 155.578558 secs or 0.043216 hours

Combined Bootstrap and ML search took 264.888440 secs or 0.073580 hours

Drawing Bootstrap Support Values on best-scoring ML tree ...



Found 1 tree in File /home/suz11001/sept30/raxml/not-scaled/150aa/domain.60/domain_0.8IS/RAxML_bestTree.post_transfer



Found 1 tree in File /home/suz11001/sept30/raxml/not-scaled/150aa/domain.60/domain_0.8IS/RAxML_bestTree.post_transfer

Program execution info written to /home/suz11001/sept30/raxml/not-scaled/150aa/domain.60/domain_0.8IS/RAxML_info.post_transfer
All 100 bootstrapped trees written to: /home/suz11001/sept30/raxml/not-scaled/150aa/domain.60/domain_0.8IS/RAxML_bootstrap.post_transfer

Best-scoring ML tree written to: /home/suz11001/sept30/raxml/not-scaled/150aa/domain.60/domain_0.8IS/RAxML_bestTree.post_transfer

Best-scoring ML tree with support values written to: /home/suz11001/sept30/raxml/not-scaled/150aa/domain.60/domain_0.8IS/RAxML_bipartitions.post_transfer

Best-scoring ML tree with support values as branch labels written to: /home/suz11001/sept30/raxml/not-scaled/150aa/domain.60/domain_0.8IS/RAxML_bipartitionsBranchLabels.post_transfer

Overall execution time for full ML analysis: 264.891414 secs or 0.073581 hours or 0.003066 days

