
RAxML can't, parse the alignment file as phylip file 
it will now try to parse it as FASTA file



Using BFGS method to optimize GTR rate parameters, to disable this specify "--no-bfgs" 



This is RAxML version 8.2.12 released by Alexandros Stamatakis on May 2018.

With greatly appreciated code contributions by:
Andre Aberer      (HITS)
Simon Berger      (HITS)
Alexey Kozlov     (HITS)
Kassian Kobert    (HITS)
David Dao         (KIT and HITS)
Sarah Lutteropp   (KIT and HITS)
Nick Pattengale   (Sandia)
Wayne Pfeiffer    (SDSC)
Akifumi S. Tanabe (NRIFS)
Charlie Taylor    (UF)


Alignment has 440 distinct alignment patterns

Proportion of gaps and completely undetermined characters in this alignment: 0.00%

RAxML rapid bootstrapping and subsequent ML search

Using 1 distinct models/data partitions with joint branch length optimization



Executing 100 rapid bootstrap inferences and thereafter a thorough ML search 

All free model parameters will be estimated by RAxML
ML estimate of 25 per site rate categories

Likelihood of final tree will be evaluated and optimized under GAMMA

GAMMA Model parameters will be estimated up to an accuracy of 0.1000000000 Log Likelihood units

Partition: 0
Alignment Patterns: 440
Name: No Name Provided
DataType: DNA
Substitution Matrix: GTR




RAxML was called as follows:

raxmlHPC-SSE3 -f a -p 13579 -N 100 -m GTRCAT -x 12345 -s /home/suz11001/sept30/seqGen/scaled/150aa/domain.60/domain_0.2IS/seqs/genes/pre_transfer/gene.pruned.tree -n pre_transfer 



Time for BS model parameter optimization 0.289939
Bootstrap[0]: Time 1.604314 seconds, bootstrap likelihood -17982.305831, best rearrangement setting 13
Bootstrap[1]: Time 1.139622 seconds, bootstrap likelihood -18497.747649, best rearrangement setting 13
Bootstrap[2]: Time 1.221850 seconds, bootstrap likelihood -17918.571387, best rearrangement setting 12
Bootstrap[3]: Time 1.127244 seconds, bootstrap likelihood -18668.595590, best rearrangement setting 15
Bootstrap[4]: Time 1.225088 seconds, bootstrap likelihood -18593.070460, best rearrangement setting 10
Bootstrap[5]: Time 1.262940 seconds, bootstrap likelihood -18097.138129, best rearrangement setting 10
Bootstrap[6]: Time 1.379660 seconds, bootstrap likelihood -17948.979958, best rearrangement setting 6
Bootstrap[7]: Time 1.321116 seconds, bootstrap likelihood -17980.798954, best rearrangement setting 14
Bootstrap[8]: Time 1.223298 seconds, bootstrap likelihood -18311.632151, best rearrangement setting 5
Bootstrap[9]: Time 1.327443 seconds, bootstrap likelihood -17992.891734, best rearrangement setting 7
Bootstrap[10]: Time 1.398969 seconds, bootstrap likelihood -18963.999082, best rearrangement setting 7
Bootstrap[11]: Time 1.316233 seconds, bootstrap likelihood -18371.245657, best rearrangement setting 5
Bootstrap[12]: Time 1.203338 seconds, bootstrap likelihood -18040.550913, best rearrangement setting 8
Bootstrap[13]: Time 1.289815 seconds, bootstrap likelihood -18513.638462, best rearrangement setting 7
Bootstrap[14]: Time 1.270125 seconds, bootstrap likelihood -17963.434875, best rearrangement setting 12
Bootstrap[15]: Time 1.331542 seconds, bootstrap likelihood -18901.769375, best rearrangement setting 15
Bootstrap[16]: Time 1.120258 seconds, bootstrap likelihood -17695.905691, best rearrangement setting 12
Bootstrap[17]: Time 1.378057 seconds, bootstrap likelihood -18122.346350, best rearrangement setting 12
Bootstrap[18]: Time 1.192715 seconds, bootstrap likelihood -18348.700092, best rearrangement setting 5
Bootstrap[19]: Time 1.326767 seconds, bootstrap likelihood -17974.652686, best rearrangement setting 8
Bootstrap[20]: Time 1.270710 seconds, bootstrap likelihood -18723.027669, best rearrangement setting 10
Bootstrap[21]: Time 1.374394 seconds, bootstrap likelihood -18373.900997, best rearrangement setting 6
Bootstrap[22]: Time 1.268480 seconds, bootstrap likelihood -19292.253343, best rearrangement setting 5
Bootstrap[23]: Time 1.377740 seconds, bootstrap likelihood -18522.904290, best rearrangement setting 7
Bootstrap[24]: Time 1.376837 seconds, bootstrap likelihood -18560.807930, best rearrangement setting 8
Bootstrap[25]: Time 1.259391 seconds, bootstrap likelihood -18115.120612, best rearrangement setting 6
Bootstrap[26]: Time 1.229384 seconds, bootstrap likelihood -17856.408826, best rearrangement setting 12
Bootstrap[27]: Time 1.326011 seconds, bootstrap likelihood -18433.168295, best rearrangement setting 10
Bootstrap[28]: Time 1.246512 seconds, bootstrap likelihood -17862.572969, best rearrangement setting 11
Bootstrap[29]: Time 1.238796 seconds, bootstrap likelihood -18090.952095, best rearrangement setting 12
Bootstrap[30]: Time 1.219287 seconds, bootstrap likelihood -18169.994374, best rearrangement setting 15
Bootstrap[31]: Time 1.392498 seconds, bootstrap likelihood -17612.168582, best rearrangement setting 15
Bootstrap[32]: Time 1.377256 seconds, bootstrap likelihood -18289.092348, best rearrangement setting 6
Bootstrap[33]: Time 1.514993 seconds, bootstrap likelihood -18444.979155, best rearrangement setting 15
Bootstrap[34]: Time 1.376236 seconds, bootstrap likelihood -18864.688193, best rearrangement setting 11
Bootstrap[35]: Time 1.281288 seconds, bootstrap likelihood -18806.719831, best rearrangement setting 8
Bootstrap[36]: Time 1.236971 seconds, bootstrap likelihood -17839.323757, best rearrangement setting 9
Bootstrap[37]: Time 1.575312 seconds, bootstrap likelihood -18893.643525, best rearrangement setting 11
Bootstrap[38]: Time 1.255027 seconds, bootstrap likelihood -17811.313942, best rearrangement setting 8
Bootstrap[39]: Time 1.257263 seconds, bootstrap likelihood -17890.877644, best rearrangement setting 13
Bootstrap[40]: Time 1.168681 seconds, bootstrap likelihood -17445.348300, best rearrangement setting 13
Bootstrap[41]: Time 1.389842 seconds, bootstrap likelihood -18856.483081, best rearrangement setting 10
Bootstrap[42]: Time 1.492590 seconds, bootstrap likelihood -17679.779242, best rearrangement setting 5
Bootstrap[43]: Time 1.362218 seconds, bootstrap likelihood -18023.815947, best rearrangement setting 14
Bootstrap[44]: Time 1.466222 seconds, bootstrap likelihood -18521.485719, best rearrangement setting 10
Bootstrap[45]: Time 1.315886 seconds, bootstrap likelihood -18422.682413, best rearrangement setting 15
Bootstrap[46]: Time 1.400495 seconds, bootstrap likelihood -18393.103841, best rearrangement setting 14
Bootstrap[47]: Time 1.208939 seconds, bootstrap likelihood -18215.073421, best rearrangement setting 8
Bootstrap[48]: Time 1.298235 seconds, bootstrap likelihood -18774.175745, best rearrangement setting 6
Bootstrap[49]: Time 1.571637 seconds, bootstrap likelihood -18443.417708, best rearrangement setting 7
Bootstrap[50]: Time 1.697905 seconds, bootstrap likelihood -18366.805976, best rearrangement setting 7
Bootstrap[51]: Time 1.256243 seconds, bootstrap likelihood -17569.385468, best rearrangement setting 11
Bootstrap[52]: Time 1.258234 seconds, bootstrap likelihood -18338.853908, best rearrangement setting 12
Bootstrap[53]: Time 1.395845 seconds, bootstrap likelihood -18297.405932, best rearrangement setting 8
Bootstrap[54]: Time 1.294000 seconds, bootstrap likelihood -18320.715373, best rearrangement setting 9
Bootstrap[55]: Time 1.400934 seconds, bootstrap likelihood -18002.044866, best rearrangement setting 11
Bootstrap[56]: Time 1.256804 seconds, bootstrap likelihood -17736.860731, best rearrangement setting 5
Bootstrap[57]: Time 1.310455 seconds, bootstrap likelihood -18239.956837, best rearrangement setting 7
Bootstrap[58]: Time 1.207139 seconds, bootstrap likelihood -17877.431202, best rearrangement setting 10
Bootstrap[59]: Time 1.221819 seconds, bootstrap likelihood -18116.350161, best rearrangement setting 9
Bootstrap[60]: Time 1.240967 seconds, bootstrap likelihood -18199.275883, best rearrangement setting 7
Bootstrap[61]: Time 1.417352 seconds, bootstrap likelihood -17663.901322, best rearrangement setting 5
Bootstrap[62]: Time 1.290884 seconds, bootstrap likelihood -18700.866423, best rearrangement setting 11
Bootstrap[63]: Time 1.246760 seconds, bootstrap likelihood -18309.162907, best rearrangement setting 12
Bootstrap[64]: Time 1.420978 seconds, bootstrap likelihood -18215.609254, best rearrangement setting 7
Bootstrap[65]: Time 1.369700 seconds, bootstrap likelihood -18212.251075, best rearrangement setting 5
Bootstrap[66]: Time 1.377868 seconds, bootstrap likelihood -18026.327861, best rearrangement setting 5
Bootstrap[67]: Time 1.157240 seconds, bootstrap likelihood -17970.372462, best rearrangement setting 15
Bootstrap[68]: Time 1.286259 seconds, bootstrap likelihood -18333.050792, best rearrangement setting 11
Bootstrap[69]: Time 1.257794 seconds, bootstrap likelihood -18081.717223, best rearrangement setting 5
Bootstrap[70]: Time 1.224501 seconds, bootstrap likelihood -17849.281608, best rearrangement setting 8
Bootstrap[71]: Time 1.200937 seconds, bootstrap likelihood -17829.709905, best rearrangement setting 10
Bootstrap[72]: Time 1.504400 seconds, bootstrap likelihood -17994.595047, best rearrangement setting 11
Bootstrap[73]: Time 1.341699 seconds, bootstrap likelihood -18033.774870, best rearrangement setting 9
Bootstrap[74]: Time 1.256601 seconds, bootstrap likelihood -18942.856568, best rearrangement setting 5
Bootstrap[75]: Time 1.541767 seconds, bootstrap likelihood -17892.183960, best rearrangement setting 8
Bootstrap[76]: Time 1.672813 seconds, bootstrap likelihood -18334.816606, best rearrangement setting 9
Bootstrap[77]: Time 1.646489 seconds, bootstrap likelihood -17768.655415, best rearrangement setting 11
Bootstrap[78]: Time 1.366751 seconds, bootstrap likelihood -18133.455460, best rearrangement setting 15
Bootstrap[79]: Time 1.457489 seconds, bootstrap likelihood -18545.646544, best rearrangement setting 9
Bootstrap[80]: Time 1.292490 seconds, bootstrap likelihood -17802.798181, best rearrangement setting 15
Bootstrap[81]: Time 1.277825 seconds, bootstrap likelihood -18081.770375, best rearrangement setting 7
Bootstrap[82]: Time 1.456224 seconds, bootstrap likelihood -18425.211414, best rearrangement setting 6
Bootstrap[83]: Time 1.373979 seconds, bootstrap likelihood -18455.388504, best rearrangement setting 10
Bootstrap[84]: Time 1.518688 seconds, bootstrap likelihood -18532.430062, best rearrangement setting 11
Bootstrap[85]: Time 1.444229 seconds, bootstrap likelihood -18323.054003, best rearrangement setting 8
Bootstrap[86]: Time 1.137868 seconds, bootstrap likelihood -18578.756651, best rearrangement setting 7
Bootstrap[87]: Time 1.331653 seconds, bootstrap likelihood -18042.589431, best rearrangement setting 7
Bootstrap[88]: Time 1.254807 seconds, bootstrap likelihood -17885.065035, best rearrangement setting 12
Bootstrap[89]: Time 1.234886 seconds, bootstrap likelihood -18479.459913, best rearrangement setting 10
Bootstrap[90]: Time 1.310853 seconds, bootstrap likelihood -18137.560069, best rearrangement setting 8
Bootstrap[91]: Time 1.439998 seconds, bootstrap likelihood -17456.358920, best rearrangement setting 12
Bootstrap[92]: Time 1.507376 seconds, bootstrap likelihood -18300.984426, best rearrangement setting 13
Bootstrap[93]: Time 1.451832 seconds, bootstrap likelihood -17839.793545, best rearrangement setting 15
Bootstrap[94]: Time 1.358540 seconds, bootstrap likelihood -18901.997333, best rearrangement setting 5
Bootstrap[95]: Time 1.199890 seconds, bootstrap likelihood -18239.130347, best rearrangement setting 5
Bootstrap[96]: Time 1.339786 seconds, bootstrap likelihood -17660.232979, best rearrangement setting 13
Bootstrap[97]: Time 1.304642 seconds, bootstrap likelihood -18161.141125, best rearrangement setting 11
Bootstrap[98]: Time 1.286963 seconds, bootstrap likelihood -18024.973476, best rearrangement setting 6
Bootstrap[99]: Time 1.426294 seconds, bootstrap likelihood -18030.113447, best rearrangement setting 14


Overall Time for 100 Rapid Bootstraps 133.334806 seconds
Average Time per Rapid Bootstrap 1.333348 seconds

Starting ML Search ...

Fast ML optimization finished

Fast ML search Time: 78.058816 seconds

Slow ML Search 0 Likelihood: -18899.438838
Slow ML Search 1 Likelihood: -18899.438838
Slow ML Search 2 Likelihood: -18899.438838
Slow ML Search 3 Likelihood: -18899.438838
Slow ML Search 4 Likelihood: -18899.438838
Slow ML Search 5 Likelihood: -18899.438838
Slow ML Search 6 Likelihood: -18899.438838
Slow ML Search 7 Likelihood: -18899.438838
Slow ML Search 8 Likelihood: -18899.438838
Slow ML Search 9 Likelihood: -18899.438838
Slow ML optimization finished

Slow ML search Time: 40.144778 seconds
Thorough ML search Time: 16.856263 seconds

Final ML Optimization Likelihood: -18899.438801

Model Information:

Model Parameters of Partition 0, Name: No Name Provided, Type of Data: DNA
alpha: 0.840022
Tree-Length: 33.290577
rate A <-> C: 0.933268
rate A <-> G: 1.013014
rate A <-> T: 1.062825
rate C <-> G: 0.876994
rate C <-> T: 0.950617
rate G <-> T: 1.000000

freq pi(A): 0.235130
freq pi(C): 0.272482
freq pi(G): 0.244965
freq pi(T): 0.247423


ML search took 135.060626 secs or 0.037517 hours

Combined Bootstrap and ML search took 268.395465 secs or 0.074554 hours

Drawing Bootstrap Support Values on best-scoring ML tree ...



Found 1 tree in File /home/suz11001/sept30/raxml/scaled/150aa/domain.60/domain_0.2IS/RAxML_bestTree.pre_transfer



Found 1 tree in File /home/suz11001/sept30/raxml/scaled/150aa/domain.60/domain_0.2IS/RAxML_bestTree.pre_transfer

Program execution info written to /home/suz11001/sept30/raxml/scaled/150aa/domain.60/domain_0.2IS/RAxML_info.pre_transfer
All 100 bootstrapped trees written to: /home/suz11001/sept30/raxml/scaled/150aa/domain.60/domain_0.2IS/RAxML_bootstrap.pre_transfer

Best-scoring ML tree written to: /home/suz11001/sept30/raxml/scaled/150aa/domain.60/domain_0.2IS/RAxML_bestTree.pre_transfer

Best-scoring ML tree with support values written to: /home/suz11001/sept30/raxml/scaled/150aa/domain.60/domain_0.2IS/RAxML_bipartitions.pre_transfer

Best-scoring ML tree with support values as branch labels written to: /home/suz11001/sept30/raxml/scaled/150aa/domain.60/domain_0.2IS/RAxML_bipartitionsBranchLabels.pre_transfer

Overall execution time for full ML analysis: 268.398391 secs or 0.074555 hours or 0.003106 days


RAxML can't, parse the alignment file as phylip file 
it will now try to parse it as FASTA file



Using BFGS method to optimize GTR rate parameters, to disable this specify "--no-bfgs" 



This is RAxML version 8.2.12 released by Alexandros Stamatakis on May 2018.

With greatly appreciated code contributions by:
Andre Aberer      (HITS)
Simon Berger      (HITS)
Alexey Kozlov     (HITS)
Kassian Kobert    (HITS)
David Dao         (KIT and HITS)
Sarah Lutteropp   (KIT and HITS)
Nick Pattengale   (Sandia)
Wayne Pfeiffer    (SDSC)
Akifumi S. Tanabe (NRIFS)
Charlie Taylor    (UF)


Alignment has 703 distinct alignment patterns

Proportion of gaps and completely undetermined characters in this alignment: 0.00%

RAxML rapid bootstrapping and subsequent ML search

Using 1 distinct models/data partitions with joint branch length optimization



Executing 100 rapid bootstrap inferences and thereafter a thorough ML search 

All free model parameters will be estimated by RAxML
ML estimate of 25 per site rate categories

Likelihood of final tree will be evaluated and optimized under GAMMA

GAMMA Model parameters will be estimated up to an accuracy of 0.1000000000 Log Likelihood units

Partition: 0
Alignment Patterns: 703
Name: No Name Provided
DataType: DNA
Substitution Matrix: GTR




RAxML was called as follows:

raxmlHPC-SSE3 -f a -p 13579 -N 100 -m GTRCAT -x 12345 -s /home/suz11001/sept30/seqGen/scaled/150aa/domain.60/domain_0.2IS/seqs/genes/post_transfer/gene.pruned.tree -n post_transfer 



Time for BS model parameter optimization 0.588012
Bootstrap[0]: Time 2.556720 seconds, bootstrap likelihood -30104.853625, best rearrangement setting 13
Bootstrap[1]: Time 1.672388 seconds, bootstrap likelihood -28293.607394, best rearrangement setting 13
Bootstrap[2]: Time 1.780936 seconds, bootstrap likelihood -30053.469515, best rearrangement setting 12
Bootstrap[3]: Time 1.741333 seconds, bootstrap likelihood -29287.830660, best rearrangement setting 15
Bootstrap[4]: Time 1.910426 seconds, bootstrap likelihood -29678.098069, best rearrangement setting 10
Bootstrap[5]: Time 1.898947 seconds, bootstrap likelihood -29687.933387, best rearrangement setting 10
Bootstrap[6]: Time 1.790419 seconds, bootstrap likelihood -29546.717548, best rearrangement setting 6
Bootstrap[7]: Time 1.951924 seconds, bootstrap likelihood -29472.583233, best rearrangement setting 14
Bootstrap[8]: Time 1.750524 seconds, bootstrap likelihood -29216.386416, best rearrangement setting 5
Bootstrap[9]: Time 1.816569 seconds, bootstrap likelihood -29271.028501, best rearrangement setting 7
Bootstrap[10]: Time 1.930283 seconds, bootstrap likelihood -29959.337914, best rearrangement setting 7
Bootstrap[11]: Time 2.101846 seconds, bootstrap likelihood -29698.762453, best rearrangement setting 5
Bootstrap[12]: Time 1.807750 seconds, bootstrap likelihood -29202.460256, best rearrangement setting 8
Bootstrap[13]: Time 2.316820 seconds, bootstrap likelihood -29498.285457, best rearrangement setting 7
Bootstrap[14]: Time 1.777883 seconds, bootstrap likelihood -29500.827814, best rearrangement setting 12
Bootstrap[15]: Time 1.651408 seconds, bootstrap likelihood -29665.673279, best rearrangement setting 15
Bootstrap[16]: Time 1.689050 seconds, bootstrap likelihood -29268.798040, best rearrangement setting 12
Bootstrap[17]: Time 1.811878 seconds, bootstrap likelihood -29456.964275, best rearrangement setting 12
Bootstrap[18]: Time 1.722956 seconds, bootstrap likelihood -29581.407857, best rearrangement setting 5
Bootstrap[19]: Time 2.264084 seconds, bootstrap likelihood -29064.676306, best rearrangement setting 8
Bootstrap[20]: Time 1.953892 seconds, bootstrap likelihood -29606.145286, best rearrangement setting 10
Bootstrap[21]: Time 1.784106 seconds, bootstrap likelihood -29570.938004, best rearrangement setting 6
Bootstrap[22]: Time 1.798325 seconds, bootstrap likelihood -29258.724200, best rearrangement setting 5
Bootstrap[23]: Time 1.861951 seconds, bootstrap likelihood -29831.625154, best rearrangement setting 7
Bootstrap[24]: Time 1.863482 seconds, bootstrap likelihood -29712.466988, best rearrangement setting 8
Bootstrap[25]: Time 1.985613 seconds, bootstrap likelihood -29478.968012, best rearrangement setting 6
Bootstrap[26]: Time 1.654451 seconds, bootstrap likelihood -29385.603757, best rearrangement setting 12
Bootstrap[27]: Time 1.997593 seconds, bootstrap likelihood -29539.892894, best rearrangement setting 10
Bootstrap[28]: Time 1.761217 seconds, bootstrap likelihood -30068.655331, best rearrangement setting 11
Bootstrap[29]: Time 1.774906 seconds, bootstrap likelihood -28858.141652, best rearrangement setting 12
Bootstrap[30]: Time 2.010967 seconds, bootstrap likelihood -29707.683045, best rearrangement setting 15
Bootstrap[31]: Time 1.867703 seconds, bootstrap likelihood -28591.306159, best rearrangement setting 15
Bootstrap[32]: Time 1.705349 seconds, bootstrap likelihood -29832.532007, best rearrangement setting 6
Bootstrap[33]: Time 1.883461 seconds, bootstrap likelihood -29376.185608, best rearrangement setting 15
Bootstrap[34]: Time 1.768202 seconds, bootstrap likelihood -29636.645381, best rearrangement setting 11
Bootstrap[35]: Time 2.035900 seconds, bootstrap likelihood -29370.302046, best rearrangement setting 8
Bootstrap[36]: Time 1.724185 seconds, bootstrap likelihood -28913.226690, best rearrangement setting 9
Bootstrap[37]: Time 1.817777 seconds, bootstrap likelihood -30090.432749, best rearrangement setting 11
Bootstrap[38]: Time 1.797385 seconds, bootstrap likelihood -29347.503723, best rearrangement setting 8
Bootstrap[39]: Time 1.864124 seconds, bootstrap likelihood -29883.483962, best rearrangement setting 13
Bootstrap[40]: Time 1.646355 seconds, bootstrap likelihood -29721.727053, best rearrangement setting 13
Bootstrap[41]: Time 2.003761 seconds, bootstrap likelihood -29128.291061, best rearrangement setting 10
Bootstrap[42]: Time 1.967779 seconds, bootstrap likelihood -29390.364947, best rearrangement setting 5
Bootstrap[43]: Time 1.682614 seconds, bootstrap likelihood -29583.567649, best rearrangement setting 14
Bootstrap[44]: Time 2.009516 seconds, bootstrap likelihood -29813.190781, best rearrangement setting 10
Bootstrap[45]: Time 1.802104 seconds, bootstrap likelihood -30029.520077, best rearrangement setting 15
Bootstrap[46]: Time 1.837795 seconds, bootstrap likelihood -29987.535882, best rearrangement setting 14
Bootstrap[47]: Time 1.692187 seconds, bootstrap likelihood -30171.506762, best rearrangement setting 8
Bootstrap[48]: Time 1.612082 seconds, bootstrap likelihood -29294.486711, best rearrangement setting 6
Bootstrap[49]: Time 1.839350 seconds, bootstrap likelihood -30065.885005, best rearrangement setting 7
Bootstrap[50]: Time 1.877730 seconds, bootstrap likelihood -29881.735369, best rearrangement setting 7
Bootstrap[51]: Time 1.732304 seconds, bootstrap likelihood -29740.238819, best rearrangement setting 11
Bootstrap[52]: Time 1.711080 seconds, bootstrap likelihood -29122.773247, best rearrangement setting 12
Bootstrap[53]: Time 1.753114 seconds, bootstrap likelihood -29649.236547, best rearrangement setting 8
Bootstrap[54]: Time 1.752237 seconds, bootstrap likelihood -29916.888439, best rearrangement setting 9
Bootstrap[55]: Time 1.823715 seconds, bootstrap likelihood -29086.177933, best rearrangement setting 11
Bootstrap[56]: Time 1.921343 seconds, bootstrap likelihood -29780.745487, best rearrangement setting 5
Bootstrap[57]: Time 1.678033 seconds, bootstrap likelihood -28932.160671, best rearrangement setting 7
Bootstrap[58]: Time 1.776623 seconds, bootstrap likelihood -29125.784257, best rearrangement setting 10
Bootstrap[59]: Time 1.877500 seconds, bootstrap likelihood -28619.985762, best rearrangement setting 9
Bootstrap[60]: Time 2.041521 seconds, bootstrap likelihood -29624.128631, best rearrangement setting 7
Bootstrap[61]: Time 1.929504 seconds, bootstrap likelihood -29659.521902, best rearrangement setting 5
Bootstrap[62]: Time 1.915024 seconds, bootstrap likelihood -29825.514789, best rearrangement setting 11
Bootstrap[63]: Time 1.745003 seconds, bootstrap likelihood -28766.842430, best rearrangement setting 12
Bootstrap[64]: Time 1.720315 seconds, bootstrap likelihood -29263.795420, best rearrangement setting 7
Bootstrap[65]: Time 1.692093 seconds, bootstrap likelihood -29862.491799, best rearrangement setting 5
Bootstrap[66]: Time 1.459777 seconds, bootstrap likelihood -28829.819438, best rearrangement setting 5
Bootstrap[67]: Time 1.776316 seconds, bootstrap likelihood -29224.048995, best rearrangement setting 15
Bootstrap[68]: Time 1.717210 seconds, bootstrap likelihood -29433.398241, best rearrangement setting 11
Bootstrap[69]: Time 1.925564 seconds, bootstrap likelihood -29147.982241, best rearrangement setting 5
Bootstrap[70]: Time 1.794071 seconds, bootstrap likelihood -30053.580697, best rearrangement setting 8
Bootstrap[71]: Time 1.807990 seconds, bootstrap likelihood -29148.639181, best rearrangement setting 10
Bootstrap[72]: Time 1.842583 seconds, bootstrap likelihood -28737.930205, best rearrangement setting 11
Bootstrap[73]: Time 1.986293 seconds, bootstrap likelihood -28939.589123, best rearrangement setting 9
Bootstrap[74]: Time 1.958333 seconds, bootstrap likelihood -29198.228511, best rearrangement setting 5
Bootstrap[75]: Time 2.024400 seconds, bootstrap likelihood -28781.185651, best rearrangement setting 8
Bootstrap[76]: Time 1.996071 seconds, bootstrap likelihood -29213.874168, best rearrangement setting 9
Bootstrap[77]: Time 1.861414 seconds, bootstrap likelihood -29671.010316, best rearrangement setting 11
Bootstrap[78]: Time 1.994537 seconds, bootstrap likelihood -29863.811848, best rearrangement setting 15
Bootstrap[79]: Time 1.932416 seconds, bootstrap likelihood -29674.114784, best rearrangement setting 9
Bootstrap[80]: Time 1.949127 seconds, bootstrap likelihood -29510.554652, best rearrangement setting 15
Bootstrap[81]: Time 1.918518 seconds, bootstrap likelihood -29472.606045, best rearrangement setting 7
Bootstrap[82]: Time 1.638206 seconds, bootstrap likelihood -29743.869532, best rearrangement setting 6
Bootstrap[83]: Time 2.096370 seconds, bootstrap likelihood -29925.858719, best rearrangement setting 10
Bootstrap[84]: Time 1.999907 seconds, bootstrap likelihood -28837.191376, best rearrangement setting 11
Bootstrap[85]: Time 1.740895 seconds, bootstrap likelihood -29579.245572, best rearrangement setting 8
Bootstrap[86]: Time 1.905408 seconds, bootstrap likelihood -29612.551265, best rearrangement setting 7
Bootstrap[87]: Time 1.742621 seconds, bootstrap likelihood -30303.168567, best rearrangement setting 7
Bootstrap[88]: Time 2.174878 seconds, bootstrap likelihood -29307.905137, best rearrangement setting 12
Bootstrap[89]: Time 2.050578 seconds, bootstrap likelihood -29929.034127, best rearrangement setting 10
Bootstrap[90]: Time 1.837293 seconds, bootstrap likelihood -28762.804422, best rearrangement setting 8
Bootstrap[91]: Time 1.950269 seconds, bootstrap likelihood -29208.033535, best rearrangement setting 12
Bootstrap[92]: Time 2.284351 seconds, bootstrap likelihood -29766.093488, best rearrangement setting 13
Bootstrap[93]: Time 1.987010 seconds, bootstrap likelihood -29985.663956, best rearrangement setting 15
Bootstrap[94]: Time 1.968446 seconds, bootstrap likelihood -29282.281519, best rearrangement setting 5
Bootstrap[95]: Time 1.805521 seconds, bootstrap likelihood -29089.482730, best rearrangement setting 5
Bootstrap[96]: Time 1.734516 seconds, bootstrap likelihood -29179.522823, best rearrangement setting 13
Bootstrap[97]: Time 2.195173 seconds, bootstrap likelihood -29774.018910, best rearrangement setting 11
Bootstrap[98]: Time 1.932472 seconds, bootstrap likelihood -29737.944382, best rearrangement setting 6
Bootstrap[99]: Time 1.967791 seconds, bootstrap likelihood -29022.547439, best rearrangement setting 14


Overall Time for 100 Rapid Bootstraps 186.888709 seconds
Average Time per Rapid Bootstrap 1.868887 seconds

Starting ML Search ...

Fast ML optimization finished

Fast ML search Time: 172.599608 seconds

Slow ML Search 0 Likelihood: -30350.239623
Slow ML Search 1 Likelihood: -30350.239623
Slow ML Search 2 Likelihood: -30350.239623
Slow ML Search 3 Likelihood: -30350.239623
Slow ML Search 4 Likelihood: -30350.239623
Slow ML Search 5 Likelihood: -30350.239623
Slow ML Search 6 Likelihood: -30350.239623
Slow ML Search 7 Likelihood: -30350.239623
Slow ML Search 8 Likelihood: -30350.239623
Slow ML Search 9 Likelihood: -30350.239623
Slow ML optimization finished

Slow ML search Time: 103.148917 seconds
Thorough ML search Time: 22.630195 seconds

Final ML Optimization Likelihood: -30350.242645

Model Information:

Model Parameters of Partition 0, Name: No Name Provided, Type of Data: DNA
alpha: 0.830646
Tree-Length: 34.397723
rate A <-> C: 0.893042
rate A <-> G: 0.961170
rate A <-> T: 1.031439
rate C <-> G: 0.876505
rate C <-> T: 0.901477
rate G <-> T: 1.000000

freq pi(A): 0.239835
freq pi(C): 0.265100
freq pi(G): 0.249704
freq pi(T): 0.245361


ML search took 298.379428 secs or 0.082883 hours

Combined Bootstrap and ML search took 485.268189 secs or 0.134797 hours

Drawing Bootstrap Support Values on best-scoring ML tree ...



Found 1 tree in File /home/suz11001/sept30/raxml/scaled/150aa/domain.60/domain_0.2IS/RAxML_bestTree.post_transfer



Found 1 tree in File /home/suz11001/sept30/raxml/scaled/150aa/domain.60/domain_0.2IS/RAxML_bestTree.post_transfer

Program execution info written to /home/suz11001/sept30/raxml/scaled/150aa/domain.60/domain_0.2IS/RAxML_info.post_transfer
All 100 bootstrapped trees written to: /home/suz11001/sept30/raxml/scaled/150aa/domain.60/domain_0.2IS/RAxML_bootstrap.post_transfer

Best-scoring ML tree written to: /home/suz11001/sept30/raxml/scaled/150aa/domain.60/domain_0.2IS/RAxML_bestTree.post_transfer

Best-scoring ML tree with support values written to: /home/suz11001/sept30/raxml/scaled/150aa/domain.60/domain_0.2IS/RAxML_bipartitions.post_transfer

Best-scoring ML tree with support values as branch labels written to: /home/suz11001/sept30/raxml/scaled/150aa/domain.60/domain_0.2IS/RAxML_bipartitionsBranchLabels.post_transfer

Overall execution time for full ML analysis: 485.271112 secs or 0.134798 hours or 0.005617 days

