
RAxML can't, parse the alignment file as phylip file 
it will now try to parse it as FASTA file



Using BFGS method to optimize GTR rate parameters, to disable this specify "--no-bfgs" 



This is RAxML version 8.2.12 released by Alexandros Stamatakis on May 2018.

With greatly appreciated code contributions by:
Andre Aberer      (HITS)
Simon Berger      (HITS)
Alexey Kozlov     (HITS)
Kassian Kobert    (HITS)
David Dao         (KIT and HITS)
Sarah Lutteropp   (KIT and HITS)
Nick Pattengale   (Sandia)
Wayne Pfeiffer    (SDSC)
Akifumi S. Tanabe (NRIFS)
Charlie Taylor    (UF)


Alignment has 860 distinct alignment patterns

Proportion of gaps and completely undetermined characters in this alignment: 0.00%

RAxML rapid bootstrapping and subsequent ML search

Using 1 distinct models/data partitions with joint branch length optimization



Executing 100 rapid bootstrap inferences and thereafter a thorough ML search 

All free model parameters will be estimated by RAxML
ML estimate of 25 per site rate categories

Likelihood of final tree will be evaluated and optimized under GAMMA

GAMMA Model parameters will be estimated up to an accuracy of 0.1000000000 Log Likelihood units

Partition: 0
Alignment Patterns: 860
Name: No Name Provided
DataType: DNA
Substitution Matrix: GTR




RAxML was called as follows:

raxmlHPC-SSE3 -f a -p 13579 -N 100 -m GTRCAT -x 12345 -s /home/suz11001/sept30/seqGen/scaled/300aa/domain.40/domain_0.5IS/seqs/genes/pre_transfer/gene.pruned.tree -n pre_transfer 



Time for BS model parameter optimization 0.805724
Bootstrap[0]: Time 3.291358 seconds, bootstrap likelihood -37108.323837, best rearrangement setting 13
Bootstrap[1]: Time 2.667985 seconds, bootstrap likelihood -36786.539804, best rearrangement setting 13
Bootstrap[2]: Time 2.237413 seconds, bootstrap likelihood -36718.471813, best rearrangement setting 12
Bootstrap[3]: Time 2.369907 seconds, bootstrap likelihood -36717.181426, best rearrangement setting 15
Bootstrap[4]: Time 2.451616 seconds, bootstrap likelihood -37144.260080, best rearrangement setting 10
Bootstrap[5]: Time 2.465163 seconds, bootstrap likelihood -37255.011752, best rearrangement setting 10
Bootstrap[6]: Time 2.372206 seconds, bootstrap likelihood -36867.921764, best rearrangement setting 6
Bootstrap[7]: Time 2.613388 seconds, bootstrap likelihood -37206.496218, best rearrangement setting 14
Bootstrap[8]: Time 2.718405 seconds, bootstrap likelihood -35829.696252, best rearrangement setting 5
Bootstrap[9]: Time 2.256492 seconds, bootstrap likelihood -36528.886887, best rearrangement setting 7
Bootstrap[10]: Time 0.956155 seconds, bootstrap likelihood -36704.512508, best rearrangement setting 7
Bootstrap[11]: Time 2.581702 seconds, bootstrap likelihood -36654.603049, best rearrangement setting 5
Bootstrap[12]: Time 2.456323 seconds, bootstrap likelihood -37388.033144, best rearrangement setting 8
Bootstrap[13]: Time 2.415986 seconds, bootstrap likelihood -36459.279939, best rearrangement setting 7
Bootstrap[14]: Time 2.581126 seconds, bootstrap likelihood -36319.443131, best rearrangement setting 12
Bootstrap[15]: Time 2.456686 seconds, bootstrap likelihood -36248.026782, best rearrangement setting 15
Bootstrap[16]: Time 2.300710 seconds, bootstrap likelihood -36356.332579, best rearrangement setting 12
Bootstrap[17]: Time 2.415378 seconds, bootstrap likelihood -37131.182569, best rearrangement setting 12
Bootstrap[18]: Time 2.357357 seconds, bootstrap likelihood -37287.540882, best rearrangement setting 5
Bootstrap[19]: Time 2.020558 seconds, bootstrap likelihood -36761.981281, best rearrangement setting 8
Bootstrap[20]: Time 2.252593 seconds, bootstrap likelihood -36559.549158, best rearrangement setting 10
Bootstrap[21]: Time 2.474047 seconds, bootstrap likelihood -36882.285219, best rearrangement setting 6
Bootstrap[22]: Time 2.432221 seconds, bootstrap likelihood -35358.780372, best rearrangement setting 5
Bootstrap[23]: Time 2.509237 seconds, bootstrap likelihood -36017.967807, best rearrangement setting 7
Bootstrap[24]: Time 0.935266 seconds, bootstrap likelihood -37563.701409, best rearrangement setting 8
Bootstrap[25]: Time 2.527558 seconds, bootstrap likelihood -36805.846582, best rearrangement setting 6
Bootstrap[26]: Time 2.767464 seconds, bootstrap likelihood -37077.503438, best rearrangement setting 12
Bootstrap[27]: Time 2.197536 seconds, bootstrap likelihood -36347.707722, best rearrangement setting 10
Bootstrap[28]: Time 2.272528 seconds, bootstrap likelihood -36827.528218, best rearrangement setting 11
Bootstrap[29]: Time 2.362104 seconds, bootstrap likelihood -36251.513586, best rearrangement setting 12
Bootstrap[30]: Time 2.377528 seconds, bootstrap likelihood -36396.863275, best rearrangement setting 15
Bootstrap[31]: Time 2.506749 seconds, bootstrap likelihood -37143.434623, best rearrangement setting 15
Bootstrap[32]: Time 2.259180 seconds, bootstrap likelihood -36849.204743, best rearrangement setting 6
Bootstrap[33]: Time 2.176442 seconds, bootstrap likelihood -36377.574069, best rearrangement setting 15
Bootstrap[34]: Time 2.827888 seconds, bootstrap likelihood -36725.636921, best rearrangement setting 11
Bootstrap[35]: Time 2.599627 seconds, bootstrap likelihood -36400.363416, best rearrangement setting 8
Bootstrap[36]: Time 2.508881 seconds, bootstrap likelihood -36629.374617, best rearrangement setting 9
Bootstrap[37]: Time 2.294975 seconds, bootstrap likelihood -36993.216331, best rearrangement setting 11
Bootstrap[38]: Time 2.468610 seconds, bootstrap likelihood -35709.325188, best rearrangement setting 8
Bootstrap[39]: Time 2.246707 seconds, bootstrap likelihood -37072.982424, best rearrangement setting 13
Bootstrap[40]: Time 2.447045 seconds, bootstrap likelihood -37250.858222, best rearrangement setting 13
Bootstrap[41]: Time 2.323339 seconds, bootstrap likelihood -37159.706444, best rearrangement setting 10
Bootstrap[42]: Time 0.973158 seconds, bootstrap likelihood -36969.519105, best rearrangement setting 5
Bootstrap[43]: Time 2.454909 seconds, bootstrap likelihood -37136.778725, best rearrangement setting 14
Bootstrap[44]: Time 2.416468 seconds, bootstrap likelihood -36960.531744, best rearrangement setting 10
Bootstrap[45]: Time 2.331777 seconds, bootstrap likelihood -36560.607490, best rearrangement setting 15
Bootstrap[46]: Time 2.093931 seconds, bootstrap likelihood -36267.642855, best rearrangement setting 14
Bootstrap[47]: Time 2.449009 seconds, bootstrap likelihood -37279.342797, best rearrangement setting 8
Bootstrap[48]: Time 1.987030 seconds, bootstrap likelihood -36554.681389, best rearrangement setting 6
Bootstrap[49]: Time 2.492336 seconds, bootstrap likelihood -36603.970184, best rearrangement setting 7
Bootstrap[50]: Time 1.017272 seconds, bootstrap likelihood -36383.827973, best rearrangement setting 7
Bootstrap[51]: Time 1.187363 seconds, bootstrap likelihood -35427.279612, best rearrangement setting 11
Bootstrap[52]: Time 2.292083 seconds, bootstrap likelihood -36524.999005, best rearrangement setting 12
Bootstrap[53]: Time 2.476775 seconds, bootstrap likelihood -36391.673617, best rearrangement setting 8
Bootstrap[54]: Time 2.474493 seconds, bootstrap likelihood -37131.193988, best rearrangement setting 9
Bootstrap[55]: Time 2.266533 seconds, bootstrap likelihood -36869.293441, best rearrangement setting 11
Bootstrap[56]: Time 2.251347 seconds, bootstrap likelihood -36474.887574, best rearrangement setting 5
Bootstrap[57]: Time 2.567620 seconds, bootstrap likelihood -37129.639350, best rearrangement setting 7
Bootstrap[58]: Time 2.113636 seconds, bootstrap likelihood -36719.954605, best rearrangement setting 10
Bootstrap[59]: Time 2.412666 seconds, bootstrap likelihood -36475.988790, best rearrangement setting 9
Bootstrap[60]: Time 2.875589 seconds, bootstrap likelihood -36693.639769, best rearrangement setting 7
Bootstrap[61]: Time 2.411939 seconds, bootstrap likelihood -36830.284827, best rearrangement setting 5
Bootstrap[62]: Time 0.983787 seconds, bootstrap likelihood -36238.445623, best rearrangement setting 11
Bootstrap[63]: Time 0.982158 seconds, bootstrap likelihood -37383.004697, best rearrangement setting 12
Bootstrap[64]: Time 2.142707 seconds, bootstrap likelihood -37023.049564, best rearrangement setting 7
Bootstrap[65]: Time 2.288759 seconds, bootstrap likelihood -36726.645791, best rearrangement setting 5
Bootstrap[66]: Time 2.411781 seconds, bootstrap likelihood -36372.243428, best rearrangement setting 5
Bootstrap[67]: Time 2.307923 seconds, bootstrap likelihood -37032.256785, best rearrangement setting 15
Bootstrap[68]: Time 2.153353 seconds, bootstrap likelihood -37663.627752, best rearrangement setting 11
Bootstrap[69]: Time 2.207480 seconds, bootstrap likelihood -36365.185917, best rearrangement setting 5
Bootstrap[70]: Time 2.308790 seconds, bootstrap likelihood -37697.124131, best rearrangement setting 8
Bootstrap[71]: Time 2.438785 seconds, bootstrap likelihood -36209.620803, best rearrangement setting 10
Bootstrap[72]: Time 1.947699 seconds, bootstrap likelihood -36228.613629, best rearrangement setting 11
Bootstrap[73]: Time 2.400260 seconds, bootstrap likelihood -36677.837225, best rearrangement setting 9
Bootstrap[74]: Time 2.112678 seconds, bootstrap likelihood -36772.100020, best rearrangement setting 5
Bootstrap[75]: Time 2.146440 seconds, bootstrap likelihood -36537.327746, best rearrangement setting 8
Bootstrap[76]: Time 2.119389 seconds, bootstrap likelihood -36271.997594, best rearrangement setting 9
Bootstrap[77]: Time 2.151770 seconds, bootstrap likelihood -37066.189053, best rearrangement setting 11
Bootstrap[78]: Time 2.153909 seconds, bootstrap likelihood -36408.775273, best rearrangement setting 15
Bootstrap[79]: Time 2.362174 seconds, bootstrap likelihood -37043.752571, best rearrangement setting 9
Bootstrap[80]: Time 1.886873 seconds, bootstrap likelihood -35886.173204, best rearrangement setting 15
Bootstrap[81]: Time 2.305643 seconds, bootstrap likelihood -37171.868508, best rearrangement setting 7
Bootstrap[82]: Time 2.534711 seconds, bootstrap likelihood -36379.169181, best rearrangement setting 6
Bootstrap[83]: Time 2.381180 seconds, bootstrap likelihood -36123.389966, best rearrangement setting 10
Bootstrap[84]: Time 2.648296 seconds, bootstrap likelihood -36784.804136, best rearrangement setting 11
Bootstrap[85]: Time 2.375934 seconds, bootstrap likelihood -37474.397741, best rearrangement setting 8
Bootstrap[86]: Time 2.306078 seconds, bootstrap likelihood -37141.124047, best rearrangement setting 7
Bootstrap[87]: Time 2.325052 seconds, bootstrap likelihood -37041.580437, best rearrangement setting 7
Bootstrap[88]: Time 2.227719 seconds, bootstrap likelihood -36527.774515, best rearrangement setting 12
Bootstrap[89]: Time 2.616314 seconds, bootstrap likelihood -37821.417367, best rearrangement setting 10
Bootstrap[90]: Time 2.218745 seconds, bootstrap likelihood -36864.652844, best rearrangement setting 8
Bootstrap[91]: Time 2.480673 seconds, bootstrap likelihood -37492.739214, best rearrangement setting 12
Bootstrap[92]: Time 2.226149 seconds, bootstrap likelihood -37527.296562, best rearrangement setting 13
Bootstrap[93]: Time 2.329359 seconds, bootstrap likelihood -37537.396480, best rearrangement setting 15
Bootstrap[94]: Time 2.003209 seconds, bootstrap likelihood -36746.580571, best rearrangement setting 5
Bootstrap[95]: Time 2.421736 seconds, bootstrap likelihood -36529.981790, best rearrangement setting 5
Bootstrap[96]: Time 2.392420 seconds, bootstrap likelihood -36717.797508, best rearrangement setting 13
Bootstrap[97]: Time 2.243589 seconds, bootstrap likelihood -36727.608683, best rearrangement setting 11
Bootstrap[98]: Time 2.212335 seconds, bootstrap likelihood -36402.606606, best rearrangement setting 6
Bootstrap[99]: Time 2.766030 seconds, bootstrap likelihood -37688.356603, best rearrangement setting 14


Overall Time for 100 Rapid Bootstraps 227.866644 seconds
Average Time per Rapid Bootstrap 2.278666 seconds

Starting ML Search ...

Fast ML optimization finished

Fast ML search Time: 137.827844 seconds

Slow ML Search 0 Likelihood: -37662.021269
Slow ML Search 1 Likelihood: -37662.021270
Slow ML Search 2 Likelihood: -37662.021269
Slow ML Search 3 Likelihood: -37662.021269
Slow ML Search 4 Likelihood: -37662.021269
Slow ML Search 5 Likelihood: -37662.021269
Slow ML Search 6 Likelihood: -37662.021269
Slow ML Search 7 Likelihood: -37662.021269
Slow ML Search 8 Likelihood: -37662.021269
Slow ML Search 9 Likelihood: -37662.021269
Slow ML optimization finished

Slow ML search Time: 81.549030 seconds
Thorough ML search Time: 33.200500 seconds

Final ML Optimization Likelihood: -37662.021272

Model Information:

Model Parameters of Partition 0, Name: No Name Provided, Type of Data: DNA
alpha: 0.727258
Tree-Length: 32.559283
rate A <-> C: 1.027854
rate A <-> G: 1.042969
rate A <-> T: 1.008211
rate C <-> G: 0.989890
rate C <-> T: 0.979256
rate G <-> T: 1.000000

freq pi(A): 0.250000
freq pi(C): 0.254090
freq pi(G): 0.252411
freq pi(T): 0.243499


ML search took 252.578247 secs or 0.070161 hours

Combined Bootstrap and ML search took 480.444943 secs or 0.133457 hours

Drawing Bootstrap Support Values on best-scoring ML tree ...



Found 1 tree in File /home/suz11001/sept30/raxml/scaled/300aa/domain.40/domain_0.5IS/RAxML_bestTree.pre_transfer



Found 1 tree in File /home/suz11001/sept30/raxml/scaled/300aa/domain.40/domain_0.5IS/RAxML_bestTree.pre_transfer

Program execution info written to /home/suz11001/sept30/raxml/scaled/300aa/domain.40/domain_0.5IS/RAxML_info.pre_transfer
All 100 bootstrapped trees written to: /home/suz11001/sept30/raxml/scaled/300aa/domain.40/domain_0.5IS/RAxML_bootstrap.pre_transfer

Best-scoring ML tree written to: /home/suz11001/sept30/raxml/scaled/300aa/domain.40/domain_0.5IS/RAxML_bestTree.pre_transfer

Best-scoring ML tree with support values written to: /home/suz11001/sept30/raxml/scaled/300aa/domain.40/domain_0.5IS/RAxML_bipartitions.pre_transfer

Best-scoring ML tree with support values as branch labels written to: /home/suz11001/sept30/raxml/scaled/300aa/domain.40/domain_0.5IS/RAxML_bipartitionsBranchLabels.pre_transfer

Overall execution time for full ML analysis: 480.447900 secs or 0.133458 hours or 0.005561 days


RAxML can't, parse the alignment file as phylip file 
it will now try to parse it as FASTA file



Using BFGS method to optimize GTR rate parameters, to disable this specify "--no-bfgs" 



This is RAxML version 8.2.12 released by Alexandros Stamatakis on May 2018.

With greatly appreciated code contributions by:
Andre Aberer      (HITS)
Simon Berger      (HITS)
Alexey Kozlov     (HITS)
Kassian Kobert    (HITS)
David Dao         (KIT and HITS)
Sarah Lutteropp   (KIT and HITS)
Nick Pattengale   (Sandia)
Wayne Pfeiffer    (SDSC)
Akifumi S. Tanabe (NRIFS)
Charlie Taylor    (UF)


Alignment has 1201 distinct alignment patterns

Proportion of gaps and completely undetermined characters in this alignment: 0.00%

RAxML rapid bootstrapping and subsequent ML search

Using 1 distinct models/data partitions with joint branch length optimization



Executing 100 rapid bootstrap inferences and thereafter a thorough ML search 

All free model parameters will be estimated by RAxML
ML estimate of 25 per site rate categories

Likelihood of final tree will be evaluated and optimized under GAMMA

GAMMA Model parameters will be estimated up to an accuracy of 0.1000000000 Log Likelihood units

Partition: 0
Alignment Patterns: 1201
Name: No Name Provided
DataType: DNA
Substitution Matrix: GTR




RAxML was called as follows:

raxmlHPC-SSE3 -f a -p 13579 -N 100 -m GTRCAT -x 12345 -s /home/suz11001/sept30/seqGen/scaled/300aa/domain.40/domain_0.5IS/seqs/genes/post_transfer/gene.pruned.tree -n post_transfer 



Time for BS model parameter optimization 1.242098
Bootstrap[0]: Time 4.224181 seconds, bootstrap likelihood -51250.408310, best rearrangement setting 13
Bootstrap[1]: Time 1.135690 seconds, bootstrap likelihood -51200.450316, best rearrangement setting 13
Bootstrap[2]: Time 1.082772 seconds, bootstrap likelihood -50857.373043, best rearrangement setting 12
Bootstrap[3]: Time 1.186221 seconds, bootstrap likelihood -51596.904931, best rearrangement setting 15
Bootstrap[4]: Time 2.683126 seconds, bootstrap likelihood -51685.984423, best rearrangement setting 10
Bootstrap[5]: Time 2.701018 seconds, bootstrap likelihood -51000.974086, best rearrangement setting 10
Bootstrap[6]: Time 2.461121 seconds, bootstrap likelihood -51311.695883, best rearrangement setting 6
Bootstrap[7]: Time 2.888337 seconds, bootstrap likelihood -51441.735188, best rearrangement setting 14
Bootstrap[8]: Time 2.686603 seconds, bootstrap likelihood -51771.219500, best rearrangement setting 5
Bootstrap[9]: Time 2.743873 seconds, bootstrap likelihood -51163.054955, best rearrangement setting 7
Bootstrap[10]: Time 3.082297 seconds, bootstrap likelihood -51092.066466, best rearrangement setting 7
Bootstrap[11]: Time 2.882989 seconds, bootstrap likelihood -49471.056919, best rearrangement setting 5
Bootstrap[12]: Time 2.669894 seconds, bootstrap likelihood -52258.126976, best rearrangement setting 8
Bootstrap[13]: Time 2.654960 seconds, bootstrap likelihood -51903.430666, best rearrangement setting 7
Bootstrap[14]: Time 2.591717 seconds, bootstrap likelihood -51485.304757, best rearrangement setting 12
Bootstrap[15]: Time 2.834591 seconds, bootstrap likelihood -50521.044009, best rearrangement setting 15
Bootstrap[16]: Time 2.586950 seconds, bootstrap likelihood -50203.430901, best rearrangement setting 12
Bootstrap[17]: Time 1.171710 seconds, bootstrap likelihood -51360.526172, best rearrangement setting 12
Bootstrap[18]: Time 2.941181 seconds, bootstrap likelihood -50930.446140, best rearrangement setting 5
Bootstrap[19]: Time 2.581230 seconds, bootstrap likelihood -50593.512604, best rearrangement setting 8
Bootstrap[20]: Time 2.732363 seconds, bootstrap likelihood -50919.223739, best rearrangement setting 10
Bootstrap[21]: Time 2.756585 seconds, bootstrap likelihood -50910.718571, best rearrangement setting 6
Bootstrap[22]: Time 3.143182 seconds, bootstrap likelihood -50886.293317, best rearrangement setting 5
Bootstrap[23]: Time 2.651839 seconds, bootstrap likelihood -50974.725249, best rearrangement setting 7
Bootstrap[24]: Time 2.812738 seconds, bootstrap likelihood -51154.481245, best rearrangement setting 8
Bootstrap[25]: Time 3.156821 seconds, bootstrap likelihood -51277.572565, best rearrangement setting 6
Bootstrap[26]: Time 2.332478 seconds, bootstrap likelihood -51417.077625, best rearrangement setting 12
Bootstrap[27]: Time 2.552473 seconds, bootstrap likelihood -50609.738033, best rearrangement setting 10
Bootstrap[28]: Time 1.286285 seconds, bootstrap likelihood -51079.288793, best rearrangement setting 11
Bootstrap[29]: Time 2.623605 seconds, bootstrap likelihood -51452.917127, best rearrangement setting 12
Bootstrap[30]: Time 2.796531 seconds, bootstrap likelihood -51426.525354, best rearrangement setting 15
Bootstrap[31]: Time 2.283757 seconds, bootstrap likelihood -52072.331383, best rearrangement setting 15
Bootstrap[32]: Time 2.672242 seconds, bootstrap likelihood -52003.618566, best rearrangement setting 6
Bootstrap[33]: Time 3.160757 seconds, bootstrap likelihood -51879.655531, best rearrangement setting 15
Bootstrap[34]: Time 3.000885 seconds, bootstrap likelihood -50964.648132, best rearrangement setting 11
Bootstrap[35]: Time 2.683222 seconds, bootstrap likelihood -51253.401664, best rearrangement setting 8
Bootstrap[36]: Time 2.390156 seconds, bootstrap likelihood -49450.249150, best rearrangement setting 9
Bootstrap[37]: Time 2.629946 seconds, bootstrap likelihood -51199.966042, best rearrangement setting 11
Bootstrap[38]: Time 2.531217 seconds, bootstrap likelihood -50628.947353, best rearrangement setting 8
Bootstrap[39]: Time 2.471734 seconds, bootstrap likelihood -50521.819811, best rearrangement setting 13
Bootstrap[40]: Time 2.287724 seconds, bootstrap likelihood -50712.642084, best rearrangement setting 13
Bootstrap[41]: Time 3.087414 seconds, bootstrap likelihood -51805.139444, best rearrangement setting 10
Bootstrap[42]: Time 2.618399 seconds, bootstrap likelihood -52304.997781, best rearrangement setting 5
Bootstrap[43]: Time 3.070687 seconds, bootstrap likelihood -51536.343728, best rearrangement setting 14
Bootstrap[44]: Time 3.105875 seconds, bootstrap likelihood -52533.779026, best rearrangement setting 10
Bootstrap[45]: Time 2.671104 seconds, bootstrap likelihood -52084.098189, best rearrangement setting 15
Bootstrap[46]: Time 1.079358 seconds, bootstrap likelihood -51385.463513, best rearrangement setting 14
Bootstrap[47]: Time 2.643113 seconds, bootstrap likelihood -50575.348365, best rearrangement setting 8
Bootstrap[48]: Time 2.632491 seconds, bootstrap likelihood -50849.250335, best rearrangement setting 6
Bootstrap[49]: Time 3.160017 seconds, bootstrap likelihood -51245.753069, best rearrangement setting 7
Bootstrap[50]: Time 3.161307 seconds, bootstrap likelihood -51654.816315, best rearrangement setting 7
Bootstrap[51]: Time 2.520654 seconds, bootstrap likelihood -50047.976281, best rearrangement setting 11
Bootstrap[52]: Time 2.958697 seconds, bootstrap likelihood -52638.245458, best rearrangement setting 12
Bootstrap[53]: Time 3.015349 seconds, bootstrap likelihood -51682.220608, best rearrangement setting 8
Bootstrap[54]: Time 3.185206 seconds, bootstrap likelihood -51072.227163, best rearrangement setting 9
Bootstrap[55]: Time 2.612904 seconds, bootstrap likelihood -51005.739529, best rearrangement setting 11
Bootstrap[56]: Time 2.704855 seconds, bootstrap likelihood -50824.691330, best rearrangement setting 5
Bootstrap[57]: Time 2.680291 seconds, bootstrap likelihood -51243.518874, best rearrangement setting 7
Bootstrap[58]: Time 2.563541 seconds, bootstrap likelihood -51357.338872, best rearrangement setting 10
Bootstrap[59]: Time 2.801572 seconds, bootstrap likelihood -50719.324803, best rearrangement setting 9
Bootstrap[60]: Time 3.081355 seconds, bootstrap likelihood -51542.663743, best rearrangement setting 7
Bootstrap[61]: Time 1.143922 seconds, bootstrap likelihood -50865.552964, best rearrangement setting 5
Bootstrap[62]: Time 2.724575 seconds, bootstrap likelihood -50990.740656, best rearrangement setting 11
Bootstrap[63]: Time 2.870750 seconds, bootstrap likelihood -51672.957583, best rearrangement setting 12
Bootstrap[64]: Time 3.017065 seconds, bootstrap likelihood -51766.590393, best rearrangement setting 7
Bootstrap[65]: Time 1.473734 seconds, bootstrap likelihood -51276.905055, best rearrangement setting 5
Bootstrap[66]: Time 1.123429 seconds, bootstrap likelihood -51013.593892, best rearrangement setting 5
Bootstrap[67]: Time 1.363149 seconds, bootstrap likelihood -51516.743448, best rearrangement setting 15
Bootstrap[68]: Time 2.957106 seconds, bootstrap likelihood -50569.745665, best rearrangement setting 11
Bootstrap[69]: Time 2.564599 seconds, bootstrap likelihood -50727.032902, best rearrangement setting 5
Bootstrap[70]: Time 3.232840 seconds, bootstrap likelihood -51098.462536, best rearrangement setting 8
Bootstrap[71]: Time 3.486162 seconds, bootstrap likelihood -51112.971684, best rearrangement setting 10
Bootstrap[72]: Time 2.807251 seconds, bootstrap likelihood -50246.352911, best rearrangement setting 11
Bootstrap[73]: Time 2.719438 seconds, bootstrap likelihood -51136.502390, best rearrangement setting 9
Bootstrap[74]: Time 2.734941 seconds, bootstrap likelihood -50788.327239, best rearrangement setting 5
Bootstrap[75]: Time 2.900622 seconds, bootstrap likelihood -50853.175293, best rearrangement setting 8
Bootstrap[76]: Time 2.963320 seconds, bootstrap likelihood -51469.293507, best rearrangement setting 9
Bootstrap[77]: Time 2.503271 seconds, bootstrap likelihood -50612.722725, best rearrangement setting 11
Bootstrap[78]: Time 2.580538 seconds, bootstrap likelihood -50086.518363, best rearrangement setting 15
Bootstrap[79]: Time 3.014452 seconds, bootstrap likelihood -50388.400020, best rearrangement setting 9
Bootstrap[80]: Time 2.718826 seconds, bootstrap likelihood -51549.123882, best rearrangement setting 15
Bootstrap[81]: Time 2.884768 seconds, bootstrap likelihood -50811.036159, best rearrangement setting 7
Bootstrap[82]: Time 3.101909 seconds, bootstrap likelihood -50931.413551, best rearrangement setting 6
Bootstrap[83]: Time 2.842852 seconds, bootstrap likelihood -51584.757173, best rearrangement setting 10
Bootstrap[84]: Time 2.915390 seconds, bootstrap likelihood -51199.634876, best rearrangement setting 11
Bootstrap[85]: Time 1.137766 seconds, bootstrap likelihood -50588.519246, best rearrangement setting 8
Bootstrap[86]: Time 1.225177 seconds, bootstrap likelihood -51556.952602, best rearrangement setting 7
Bootstrap[87]: Time 3.128553 seconds, bootstrap likelihood -51520.978540, best rearrangement setting 7
Bootstrap[88]: Time 2.595261 seconds, bootstrap likelihood -50444.201523, best rearrangement setting 12
Bootstrap[89]: Time 2.665353 seconds, bootstrap likelihood -50854.429793, best rearrangement setting 10
Bootstrap[90]: Time 2.447484 seconds, bootstrap likelihood -51081.731490, best rearrangement setting 8
Bootstrap[91]: Time 2.644460 seconds, bootstrap likelihood -50964.048637, best rearrangement setting 12
Bootstrap[92]: Time 1.042562 seconds, bootstrap likelihood -50878.251606, best rearrangement setting 13
Bootstrap[93]: Time 1.046736 seconds, bootstrap likelihood -50764.492400, best rearrangement setting 15
Bootstrap[94]: Time 2.749674 seconds, bootstrap likelihood -51717.922377, best rearrangement setting 5
Bootstrap[95]: Time 2.956780 seconds, bootstrap likelihood -51118.631029, best rearrangement setting 5
Bootstrap[96]: Time 2.989897 seconds, bootstrap likelihood -51768.235453, best rearrangement setting 13
Bootstrap[97]: Time 2.990044 seconds, bootstrap likelihood -52158.391461, best rearrangement setting 11
Bootstrap[98]: Time 2.671981 seconds, bootstrap likelihood -50335.577431, best rearrangement setting 6
Bootstrap[99]: Time 2.524028 seconds, bootstrap likelihood -50838.806024, best rearrangement setting 14


Overall Time for 100 Rapid Bootstraps 257.601251 seconds
Average Time per Rapid Bootstrap 2.576013 seconds

Starting ML Search ...

Fast ML optimization finished

Fast ML search Time: 125.817313 seconds

Slow ML Search 0 Likelihood: -52544.415726
Slow ML Search 1 Likelihood: -52544.415725
Slow ML Search 2 Likelihood: -52544.415725
Slow ML Search 3 Likelihood: -52544.415725
Slow ML Search 4 Likelihood: -52544.415725
Slow ML Search 5 Likelihood: -52544.415726
Slow ML Search 6 Likelihood: -52544.415725
Slow ML Search 7 Likelihood: -52544.415726
Slow ML Search 8 Likelihood: -52544.415726
Slow ML Search 9 Likelihood: -52544.415726
Slow ML optimization finished

Slow ML search Time: 100.595567 seconds
Thorough ML search Time: 43.347171 seconds

Final ML Optimization Likelihood: -52544.414626

Model Information:

Model Parameters of Partition 0, Name: No Name Provided, Type of Data: DNA
alpha: 0.710855
Tree-Length: 32.362329
rate A <-> C: 1.036035
rate A <-> G: 1.068496
rate A <-> T: 0.991455
rate C <-> G: 1.001776
rate C <-> T: 0.980510
rate G <-> T: 1.000000

freq pi(A): 0.246623
freq pi(C): 0.250118
freq pi(G): 0.253715
freq pi(T): 0.249544


ML search took 269.761129 secs or 0.074934 hours

Combined Bootstrap and ML search took 527.362436 secs or 0.146490 hours

Drawing Bootstrap Support Values on best-scoring ML tree ...



Found 1 tree in File /home/suz11001/sept30/raxml/scaled/300aa/domain.40/domain_0.5IS/RAxML_bestTree.post_transfer



Found 1 tree in File /home/suz11001/sept30/raxml/scaled/300aa/domain.40/domain_0.5IS/RAxML_bestTree.post_transfer

Program execution info written to /home/suz11001/sept30/raxml/scaled/300aa/domain.40/domain_0.5IS/RAxML_info.post_transfer
All 100 bootstrapped trees written to: /home/suz11001/sept30/raxml/scaled/300aa/domain.40/domain_0.5IS/RAxML_bootstrap.post_transfer

Best-scoring ML tree written to: /home/suz11001/sept30/raxml/scaled/300aa/domain.40/domain_0.5IS/RAxML_bestTree.post_transfer

Best-scoring ML tree with support values written to: /home/suz11001/sept30/raxml/scaled/300aa/domain.40/domain_0.5IS/RAxML_bipartitions.post_transfer

Best-scoring ML tree with support values as branch labels written to: /home/suz11001/sept30/raxml/scaled/300aa/domain.40/domain_0.5IS/RAxML_bipartitionsBranchLabels.post_transfer

Overall execution time for full ML analysis: 527.367225 secs or 0.146491 hours or 0.006104 days

